# Blender v2.78 (sub 0) OBJ File: ''
# www.blender.org
mtllib menu.mtl
o Pieza5_(1)
v 8.828680 0.000000 4.748390
v 8.754400 0.000000 4.528550
v 8.878200 0.000000 4.710160
v 8.912860 0.000000 4.547670
v 8.798970 0.000000 4.504660
v 7.972030 0.000000 -5.397370
v 7.442200 0.000000 -5.373480
v 7.947270 0.000000 -5.426050
v 6.951980 0.000000 -5.669770
v 6.729150 0.000000 -5.751020
v 7.075770 0.000000 -6.606450
v 9.041600 0.000000 -1.999520
v 9.125780 0.000000 2.344560
v 9.115880 0.000000 2.306330
v 7.140140 0.000000 -5.645880
v 7.546180 0.000000 -6.023420
v 7.288700 0.000000 -5.574190
v 8.863340 0.000000 -4.976820
v 8.655370 0.000000 -5.048510
v 8.868290 0.000000 -5.187100
v 8.947520 0.000000 -4.967260
v 8.982180 0.000000 -4.680530
v 6.585550 0.000000 -5.765350
v 6.333010 0.000000 -5.765350
v -7.442670 0.000000 -5.578970
v -7.586270 0.000000 -5.454720
v -7.819000 0.000000 -5.927840
v -8.135910 0.000000 -5.473840
v -8.215140 0.000000 -5.497730
v -7.838810 0.000000 -5.927840
v -8.809350 0.000000 -5.516850
v -8.111160 0.000000 -6.267140
v -8.353790 0.000000 -5.512070
v -8.333980 0.000000 -6.606450
v -8.952950 0.000000 -5.488170
v -9.730370 0.000000 -6.606450
v -10.081900 0.000000 -5.846590
v -9.131210 0.000000 -5.244440
v -9.170820 0.000000 -5.105850
v -9.096550 0.000000 -5.320910
v -9.220340 0.000000 -2.133330
v -9.235200 0.000000 -2.955320
v -5.209450 0.000000 5.044680
v -5.070800 0.000000 5.068580
v -5.036140 0.000000 5.092470
v -5.263920 0.000000 -5.708000
v -6.125520 0.000000 -5.755790
v -7.234700 0.000000 -6.606450
v -7.784340 0.000000 -5.951730
v -7.611030 0.000000 -6.133330
v -7.304030 0.000000 -5.645880
v -6.046290 0.000000 -5.258780
v 5.877450 0.000000 -5.258780
v -3.273330 0.000000 -5.086740
v 5.575400 0.000000 -5.736680
v -6.699920 0.000000 -5.760570
v 9.001990 0.000000 -4.197850
v 9.918060 0.000000 5.302750
v 9.041600 0.000000 3.080530
v -10.081900 0.000000 5.302750
v -9.205490 0.000000 -1.999520
v -9.284710 0.000000 2.344560
v -7.932890 0.000000 -6.023420
v -7.145570 0.000000 -5.669770
v -6.912840 0.000000 -5.727120
v -6.912840 0.000000 -5.703230
v -6.967310 0.000000 -5.669770
v -7.086150 0.000000 -5.660220
v -4.035890 0.000000 -5.598090
v -3.520910 0.000000 -5.569410
v -2.545420 0.000000 -5.540740
v -1.366910 0.000000 -5.521620
v -0.094320 0.000000 -5.512070
v 1.178270 0.000000 -5.521620
v 2.356780 0.000000 -5.540740
v 3.342170 0.000000 -5.569410
v 3.867060 0.000000 -5.598090
v 4.580100 0.000000 -5.664990
v 6.748960 0.000000 -5.722340
v 6.719250 0.000000 -5.664990
v 6.709340 0.000000 -5.688890
v 7.655120 0.000000 -5.927840
v 7.432300 0.000000 -5.449940
v 7.674930 0.000000 -5.927840
v 8.482060 0.000000 -5.043730
v 8.595950 0.000000 -5.383030
v 8.170100 0.000000 -5.368700
v 8.808870 0.000000 -5.292230
v -8.111160 0.000000 -5.426050
v -7.611030 0.000000 -5.411710
v -7.601130 0.000000 -5.373480
v -8.987610 0.000000 4.504660
v -6.912840 0.000000 4.562010
v -8.987610 0.000000 4.748390
v -9.235200 0.000000 -3.739070
v -9.210440 0.000000 -4.809560
v -8.111160 0.000000 -5.445160
v -9.037130 0.000000 -5.416490
v -8.888580 0.000000 -5.363920
v -8.819250 0.000000 -5.058060
v -8.972760 0.000000 -5.292230
v -7.536760 0.000000 -5.344800
v -8.205240 0.000000 -5.373480
v -8.130960 0.000000 -5.397370
v -9.022270 0.000000 -4.981600
v -9.106450 0.000000 -4.967260
v -9.066840 0.000000 -5.105850
v 9.056460 0.000000 -2.133330
v 9.918060 0.000000 -5.846590
v 6.377580 0.000000 -5.268340
v 4.580100 0.000000 -5.081960
v -6.922740 0.000000 -5.282680
v -7.190140 0.000000 -5.072400
v -7.209940 0.000000 -5.297010
v 8.041360 0.000000 -5.373480
v 7.377830 0.000000 -5.340020
v 8.729650 0.000000 -5.363920
v 8.645470 0.000000 -5.516850
v 9.566490 0.000000 -6.606450
v 8.794020 0.000000 -5.488170
v 8.175050 0.000000 -6.606450
v 7.947270 0.000000 -5.445160
v 8.051260 0.000000 -5.497730
v 7.773960 0.000000 -6.023420
v 8.189910 0.000000 -5.512070
v 7.249080 0.000000 -5.316130
v 7.452100 0.000000 -5.406930
v 7.972030 0.000000 -5.473840
v 8.878200 0.000000 -5.416490
v 8.972280 0.000000 -5.244440
v 9.011890 0.000000 -5.105850
v 9.046560 0.000000 -4.809560
v 9.066360 0.000000 -4.317320
v 9.076270 0.000000 -2.955320
v 8.823730 0.000000 4.232260
v -0.079465 0.000000 4.805730
v -0.485506 0.000000 4.848750
v -0.599396 0.000000 4.824850
v 8.650420 0.000000 -4.627960
v 8.650420 0.000000 4.131900
v -8.814300 0.000000 -4.627960
v -7.412960 0.000000 -5.320910
v -9.017320 0.000000 5.016010
v -9.418410 0.000000 6.707770
v -8.640990 0.000000 -5.048510
v -8.754880 0.000000 -5.383030
v -9.146070 0.000000 -4.680530
v -9.185680 0.000000 2.229870
v -9.255000 0.000000 2.277660
v -9.190630 0.000000 -2.104660
v -9.175780 0.000000 -2.405730
v -9.131210 0.000000 2.382800
v -9.101500 0.000000 2.784230
v -9.160920 0.000000 -4.197850
v -8.814300 0.000000 4.131900
v 8.853440 0.000000 2.746000
v 8.927710 0.000000 4.165350
v 7.046060 0.000000 -5.297010
v 8.858390 0.000000 5.016010
v 8.962380 0.000000 4.834410
v 7.501620 0.000000 4.547670
v 8.615760 0.000000 4.523780
v 9.001990 0.000000 -3.289840
v 9.026750 0.000000 -2.104660
v -4.461740 0.000000 5.140260
v -4.110170 0.000000 5.532140
v -4.253770 0.000000 5.565590
v -4.748940 0.000000 6.726880
v -1.426330 0.000000 5.154600
v -1.010390 0.000000 5.140260
v -3.426830 0.000000 4.767500
v -4.580580 0.000000 4.585900
v -1.188650 0.000000 4.791400
v -4.882630 0.000000 5.116370
v -4.615240 0.000000 5.493910
v -4.694470 0.000000 5.513020
v -0.470651 0.000000 5.035130
v 0.158217 0.000000 5.106810
v -0.559782 0.000000 5.087690
v -4.956910 0.000000 5.565590
v -5.001480 0.000000 5.579930
v -5.135170 0.000000 5.675510
v -0.079465 0.000000 4.824850
v -0.450844 0.000000 4.872640
v -5.580830 0.000000 5.020790
v -0.015093 0.000000 4.791400
v -0.822223 0.000000 4.805730
v -6.863320 0.000000 5.006450
v -5.085650 0.000000 5.694620
v -5.031190 0.000000 5.675510
v -9.126260 0.000000 4.834410
v -9.151020 0.000000 4.729270
v -9.180730 0.000000 4.471210
v -9.195580 0.000000 4.084110
v -9.037130 0.000000 4.710160
v -9.076740 0.000000 4.547670
v -9.215390 0.000000 2.707770
v -9.091600 0.000000 4.165350
v -9.250050 0.000000 2.363680
v -9.235200 0.000000 2.459260
v -9.264910 0.000000 2.363680
v -9.269860 0.000000 2.296770
v 0.524645 0.000000 4.762720
v 4.243390 0.000000 5.642050
v 4.357280 0.000000 5.503460
v 4.406790 0.000000 5.546480
v 0.252300 0.000000 5.125930
v 0.321624 0.000000 5.097250
v 0.242397 0.000000 5.149820
v 3.193620 0.000000 5.622940
v 4.590010 0.000000 6.726880
v 3.010410 0.000000 5.579930
v 0.217638 0.000000 5.149820
v 0.207735 0.000000 5.020790
v 0.267155 0.000000 5.054240
v -0.733092 0.000000 5.121150
v -0.445893 0.000000 4.968220
v -0.039851 0.000000 4.891760
v 1.049530 0.000000 5.135480
v 0.054231 0.000000 5.006450
v 4.401840 0.000000 4.576340
v 2.366680 0.000000 4.743610
v 9.259480 0.000000 6.707770
v 6.649920 0.000000 5.006450
v 5.352570 0.000000 5.020790
v 8.967330 0.000000 2.382800
v 8.942570 0.000000 2.784230
v 9.021800 0.000000 2.229870
v 9.096070 0.000000 2.277660
v 9.071310 0.000000 2.459260
v 9.091120 0.000000 2.363680
v 9.041600 0.000000 3.673120
v 9.016850 0.000000 4.471210
v 8.987140 0.000000 4.729270
v 4.708850 0.000000 5.613380
v 4.654380 0.000000 5.570370
v 4.832640 0.000000 5.106810
v 4.857400 0.000000 5.063800
v 4.986150 0.000000 5.044680
v 4.129500 0.000000 5.140260
v 4.451360 0.000000 5.493910
v -4.818260 0.000000 5.627720
v -4.773700 0.000000 5.627720
v -4.783600 0.000000 5.551250
v -4.867780 0.000000 5.613380
v -4.981670 0.000000 5.637280
v -4.521160 0.000000 5.503460
v -3.619950 0.000000 5.618160
v -3.629850 0.000000 5.632500
v -3.842770 0.000000 5.508240
v -4.164630 0.000000 5.560810
v -3.585280 0.000000 5.651610
v -3.981420 0.000000 5.603820
v -4.139880 0.000000 5.613380
v -4.323090 0.000000 5.675510
v -4.278520 0.000000 5.637280
v 4.609810 0.000000 5.627720
v 4.654380 0.000000 5.627720
v 3.911620 0.000000 5.622940
v 3.975990 0.000000 5.613380
v 4.139400 0.000000 5.651610
v 4.530590 0.000000 5.608600
v 4.248340 0.000000 5.689840
v 3.837350 0.000000 5.508240
v 3.946280 0.000000 5.532140
v 3.421400 0.000000 5.651610
v 3.470920 0.000000 5.627720
v 3.817540 0.000000 5.603820
v 3.337220 0.000000 5.570370
v 3.411500 0.000000 5.154600
v 3.678890 0.000000 5.508240
v 4.530590 0.000000 5.513020
v -3.763550 0.000000 5.154600
v -3.481300 0.000000 5.560810
v -4.070550 0.000000 5.622940
v -3.971520 0.000000 5.503460
v -3.377310 0.000000 5.532140
v -3.169340 0.000000 5.498690
v -3.090110 0.000000 5.498690
v -3.050500 0.000000 5.513020
v -3.065350 0.000000 5.546480
v -3.174290 0.000000 5.584710
v -3.436730 0.000000 5.637280
v -4.243860 0.000000 5.579930
v -4.694470 0.000000 5.608600
v -4.432030 0.000000 5.675510
v -4.298330 0.000000 5.579930
v -3.882390 0.000000 5.560810
v 2.886620 0.000000 5.527360
v 1.777430 0.000000 5.154600
v 2.891570 0.000000 5.508240
v 3.020310 0.000000 5.508240
v 4.005700 0.000000 5.584710
v 4.084930 0.000000 5.579930
v 3.708600 0.000000 5.551250
v 4.005700 0.000000 5.560810
v 4.253290 0.000000 5.680290
v -5.110410 0.000000 5.694620
v -4.951960 0.000000 5.579930
v -4.164630 0.000000 5.584710
v -4.407270 0.000000 5.694620
v -4.377560 0.000000 5.694620
v -4.600390 0.000000 5.570370
v 4.198820 0.000000 5.685070
v 4.183970 0.000000 5.603820
v 8.878200 1.000000 4.710160
v 8.754400 1.000000 4.528550
v 8.828680 1.000000 4.748390
v 8.798970 1.000000 4.504660
v 8.912860 1.000000 4.547670
v 7.947270 1.000000 -5.426050
v 7.442200 1.000000 -5.373480
v 7.972030 1.000000 -5.397370
v 7.075770 1.000000 -6.606450
v 6.729150 1.000000 -5.751020
v 6.951980 1.000000 -5.669770
v 9.115880 1.000000 2.306330
v 9.125780 1.000000 2.344560
v 9.041600 1.000000 -1.999520
v 7.288700 1.000000 -5.574190
v 7.546180 1.000000 -6.023420
v 7.140140 1.000000 -5.645880
v 8.868290 1.000000 -5.187100
v 8.655370 1.000000 -5.048510
v 8.863340 1.000000 -4.976820
v 8.982180 1.000000 -4.680530
v 8.947520 1.000000 -4.967260
v 6.333010 1.000000 -5.765350
v 6.585550 1.000000 -5.765350
v -7.819000 1.000000 -5.927840
v -7.586270 1.000000 -5.454720
v -7.442670 1.000000 -5.578970
v -7.838810 1.000000 -5.927840
v -8.215140 1.000000 -5.497730
v -8.135910 1.000000 -5.473840
v -8.353790 1.000000 -5.512070
v -8.111160 1.000000 -6.267140
v -8.809350 1.000000 -5.516850
v -8.333980 1.000000 -6.606450
v -9.730370 1.000000 -6.606450
v -8.952950 1.000000 -5.488170
v -9.170820 1.000000 -5.105850
v -9.131210 1.000000 -5.244440
v -10.081900 1.000000 -5.846590
v -9.096550 1.000000 -5.320910
v -9.235200 1.000000 -2.955320
v -9.220340 1.000000 -2.133330
v -5.036140 1.000000 5.092470
v -5.070800 1.000000 5.068580
v -5.209450 1.000000 5.044680
v -7.234700 1.000000 -6.606450
v -6.125520 1.000000 -5.755790
v -5.263920 1.000000 -5.708000
v -7.304030 1.000000 -5.645880
v -7.611030 1.000000 -6.133330
v -7.784340 1.000000 -5.951730
v -3.273330 1.000000 -5.086740
v 5.877450 1.000000 -5.258780
v -6.046290 1.000000 -5.258780
v 5.575400 1.000000 -5.736680
v -6.699920 1.000000 -5.760570
v 9.001990 1.000000 -4.197850
v 9.041600 1.000000 3.080530
v 9.918060 1.000000 5.302750
v -9.284710 1.000000 2.344560
v -9.205490 1.000000 -1.999520
v -10.081900 1.000000 5.302750
v -7.932890 1.000000 -6.023420
v -7.145570 1.000000 -5.669770
v -6.912840 1.000000 -5.727120
v -6.967310 1.000000 -5.669770
v -6.912840 1.000000 -5.703230
v -7.086150 1.000000 -5.660220
v -4.035890 1.000000 -5.598090
v -3.520910 1.000000 -5.569410
v -2.545420 1.000000 -5.540740
v -1.366910 1.000000 -5.521620
v -0.094320 1.000000 -5.512070
v 1.178270 1.000000 -5.521620
v 2.356780 1.000000 -5.540740
v 3.342170 1.000000 -5.569410
v 3.867060 1.000000 -5.598090
v 4.580100 1.000000 -5.664990
v 6.748960 1.000000 -5.722340
v 6.709340 1.000000 -5.688890
v 6.719250 1.000000 -5.664990
v 7.432300 1.000000 -5.449940
v 7.655120 1.000000 -5.927840
v 7.674930 1.000000 -5.927840
v 8.595950 1.000000 -5.383030
v 8.482060 1.000000 -5.043730
v 8.170100 1.000000 -5.368700
v 8.808870 1.000000 -5.292230
v -7.601130 1.000000 -5.373480
v -7.611030 1.000000 -5.411710
v -8.111160 1.000000 -5.426050
v -8.987610 1.000000 4.748390
v -6.912840 1.000000 4.562010
v -8.987610 1.000000 4.504660
v -9.235200 1.000000 -3.739070
v -9.210440 1.000000 -4.809560
v -8.111160 1.000000 -5.445160
v -9.037130 1.000000 -5.416490
v -8.972760 1.000000 -5.292230
v -8.819250 1.000000 -5.058060
v -8.888580 1.000000 -5.363920
v -8.130960 1.000000 -5.397370
v -8.205240 1.000000 -5.373480
v -7.536760 1.000000 -5.344800
v -9.066840 1.000000 -5.105850
v -9.106450 1.000000 -4.967260
v -9.022270 1.000000 -4.981600
v 9.918060 1.000000 -5.846590
v 9.056460 1.000000 -2.133330
v 4.580100 1.000000 -5.081960
v 6.377580 1.000000 -5.268340
v -7.209940 1.000000 -5.297010
v -7.190140 1.000000 -5.072400
v -6.922740 1.000000 -5.282680
v 7.377830 1.000000 -5.340020
v 8.041360 1.000000 -5.373480
v 8.729650 1.000000 -5.363920
v 8.794020 1.000000 -5.488170
v 9.566490 1.000000 -6.606450
v 8.645470 1.000000 -5.516850
v 8.175050 1.000000 -6.606450
v 7.947270 1.000000 -5.445160
v 8.189910 1.000000 -5.512070
v 7.773960 1.000000 -6.023420
v 8.051260 1.000000 -5.497730
v 7.249080 1.000000 -5.316130
v 7.452100 1.000000 -5.406930
v 7.972030 1.000000 -5.473840
v 8.878200 1.000000 -5.416490
v 8.972280 1.000000 -5.244440
v 9.011890 1.000000 -5.105850
v 9.046560 1.000000 -4.809560
v 9.066360 1.000000 -4.317320
v 9.076270 1.000000 -2.955320
v 8.823730 1.000000 4.232260
v -0.599396 1.000000 4.824850
v -0.485506 1.000000 4.848750
v -0.079465 1.000000 4.805730
v -8.814300 1.000000 -4.627960
v 8.650420 1.000000 4.131900
v 8.650420 1.000000 -4.627960
v -7.412960 1.000000 -5.320910
v -9.418410 1.000000 6.707770
v -9.017320 1.000000 5.016010
v -8.754880 1.000000 -5.383030
v -8.640990 1.000000 -5.048510
v -9.146070 1.000000 -4.680530
v -9.255000 1.000000 2.277660
v -9.185680 1.000000 2.229870
v -9.131210 1.000000 2.382800
v -9.175780 1.000000 -2.405730
v -9.190630 1.000000 -2.104660
v -9.101500 1.000000 2.784230
v -9.160920 1.000000 -4.197850
v -8.814300 1.000000 4.131900
v 8.927710 1.000000 4.165350
v 8.853440 1.000000 2.746000
v 7.046060 1.000000 -5.297010
v 8.962380 1.000000 4.834410
v 8.858390 1.000000 5.016010
v 8.615760 1.000000 4.523780
v 7.501620 1.000000 4.547670
v 9.001990 1.000000 -3.289840
v 9.026750 1.000000 -2.104660
v -4.253770 1.000000 5.565590
v -4.110170 1.000000 5.532140
v -4.461740 1.000000 5.140260
v -1.010390 1.000000 5.140260
v -1.426330 1.000000 5.154600
v -4.748940 1.000000 6.726880
v -1.188650 1.000000 4.791400
v -4.580580 1.000000 4.585900
v -3.426830 1.000000 4.767500
v -4.694470 1.000000 5.513020
v -4.615240 1.000000 5.493910
v -4.882630 1.000000 5.116370
v -0.559782 1.000000 5.087690
v 0.158217 1.000000 5.106810
v -0.470651 1.000000 5.035130
v -5.001480 1.000000 5.579930
v -4.956910 1.000000 5.565590
v -5.135170 1.000000 5.675510
v -0.450844 1.000000 4.872640
v -0.079465 1.000000 4.824850
v -5.580830 1.000000 5.020790
v -0.822223 1.000000 4.805730
v -0.015093 1.000000 4.791400
v -6.863320 1.000000 5.006450
v -5.031190 1.000000 5.675510
v -5.085650 1.000000 5.694620
v -9.126260 1.000000 4.834410
v -9.151020 1.000000 4.729270
v -9.180730 1.000000 4.471210
v -9.195580 1.000000 4.084110
v -9.076740 1.000000 4.547670
v -9.037130 1.000000 4.710160
v -9.215390 1.000000 2.707770
v -9.091600 1.000000 4.165350
v -9.264910 1.000000 2.363680
v -9.235200 1.000000 2.459260
v -9.250050 1.000000 2.363680
v -9.269860 1.000000 2.296770
v 0.524645 1.000000 4.762720
v 4.406790 1.000000 5.546480
v 4.357280 1.000000 5.503460
v 4.243390 1.000000 5.642050
v 0.242397 1.000000 5.149820
v 0.321624 1.000000 5.097250
v 0.252300 1.000000 5.125930
v 3.010410 1.000000 5.579930
v 4.590010 1.000000 6.726880
v 3.193620 1.000000 5.622940
v 0.217638 1.000000 5.149820
v 0.267155 1.000000 5.054240
v 0.207735 1.000000 5.020790
v -0.733092 1.000000 5.121150
v -0.039851 1.000000 4.891760
v -0.445893 1.000000 4.968220
v 1.049530 1.000000 5.135480
v 0.054231 1.000000 5.006450
v 4.401840 1.000000 4.576340
v 2.366680 1.000000 4.743610
v 6.649920 1.000000 5.006450
v 9.259480 1.000000 6.707770
v 5.352570 1.000000 5.020790
v 8.942570 1.000000 2.784230
v 8.967330 1.000000 2.382800
v 9.021800 1.000000 2.229870
v 9.096070 1.000000 2.277660
v 9.071310 1.000000 2.459260
v 9.091120 1.000000 2.363680
v 9.041600 1.000000 3.673120
v 9.016850 1.000000 4.471210
v 8.987140 1.000000 4.729270
v 4.832640 1.000000 5.106810
v 4.654380 1.000000 5.570370
v 4.708850 1.000000 5.613380
v 4.986150 1.000000 5.044680
v 4.857400 1.000000 5.063800
v 4.451360 1.000000 5.493910
v 4.129500 1.000000 5.140260
v -4.773700 1.000000 5.627720
v -4.818260 1.000000 5.627720
v -4.867780 1.000000 5.613380
v -4.783600 1.000000 5.551250
v -4.981670 1.000000 5.637280
v -4.521160 1.000000 5.503460
v -3.842770 1.000000 5.508240
v -3.629850 1.000000 5.632500
v -3.619950 1.000000 5.618160
v -4.164630 1.000000 5.560810
v -3.981420 1.000000 5.603820
v -3.585280 1.000000 5.651610
v -4.278520 1.000000 5.637280
v -4.323090 1.000000 5.675510
v -4.139880 1.000000 5.613380
v 4.654380 1.000000 5.627720
v 4.609810 1.000000 5.627720
v 4.139400 1.000000 5.651610
v 3.975990 1.000000 5.613380
v 3.911620 1.000000 5.622940
v 4.248340 1.000000 5.689840
v 4.530590 1.000000 5.608600
v 3.946280 1.000000 5.532140
v 3.837350 1.000000 5.508240
v 3.817540 1.000000 5.603820
v 3.470920 1.000000 5.627720
v 3.421400 1.000000 5.651610
v 3.678890 1.000000 5.508240
v 3.411500 1.000000 5.154600
v 3.337220 1.000000 5.570370
v 4.530590 1.000000 5.513020
v -3.481300 1.000000 5.560810
v -3.763550 1.000000 5.154600
v -4.070550 1.000000 5.622940
v -3.971520 1.000000 5.503460
v -3.377310 1.000000 5.532140
v -3.169340 1.000000 5.498690
v -3.090110 1.000000 5.498690
v -3.050500 1.000000 5.513020
v -3.065350 1.000000 5.546480
v -3.174290 1.000000 5.584710
v -3.436730 1.000000 5.637280
v -4.243860 1.000000 5.579930
v -4.432030 1.000000 5.675510
v -4.694470 1.000000 5.608600
v -4.298330 1.000000 5.579930
v -3.882390 1.000000 5.560810
v 2.886620 1.000000 5.527360
v 1.777430 1.000000 5.154600
v 2.891570 1.000000 5.508240
v 3.020310 1.000000 5.508240
v 4.084930 1.000000 5.579930
v 4.005700 1.000000 5.584710
v 3.708600 1.000000 5.551250
v 4.005700 1.000000 5.560810
v 4.253290 1.000000 5.680290
v -5.110410 1.000000 5.694620
v -4.951960 1.000000 5.579930
v -4.164630 1.000000 5.584710
v -4.407270 1.000000 5.694620
v -4.377560 1.000000 5.694620
v -4.600390 1.000000 5.570370
v 4.198820 1.000000 5.685070
v 4.183970 1.000000 5.603820
vt 0.9210 0.1682
vt 0.9175 0.1838
vt 0.9233 0.1709
vt 0.9250 0.1824
vt 0.9196 0.1855
vt 0.8805 0.8868
vt 0.8555 0.8851
vt 0.8794 0.8888
vt 0.8324 0.9061
vt 0.8218 0.9119
vt 0.8382 0.9725
vt 0.9310 0.6461
vt 0.9350 0.3385
vt 0.9345 0.3412
vt 0.8413 0.9044
vt 0.8604 0.9312
vt 0.8483 0.8993
vt 0.9226 0.8570
vt 0.9128 0.8621
vt 0.9229 0.8719
vt 0.9266 0.8563
vt 0.9282 0.8360
vt 0.8151 0.9129
vt 0.8031 0.9129
vt 0.1527 0.8997
vt 0.1459 0.8909
vt 0.1349 0.9244
vt 0.1199 0.8922
vt 0.1162 0.8939
vt 0.1339 0.9244
vt 0.0881 0.8953
vt 0.1211 0.9484
vt 0.1096 0.8949
vt 0.1106 0.9725
vt 0.0813 0.8932
vt 0.0446 0.9725
vt 0.0280 0.9186
vt 0.0729 0.8760
vt 0.0710 0.8662
vt 0.0746 0.8814
vt 0.0687 0.6556
vt 0.0680 0.7138
vt 0.2581 0.1472
vt 0.2647 0.1455
vt 0.2663 0.1438
vt 0.2555 0.9088
vt 0.2148 0.9122
vt 0.1625 0.9725
vt 0.1365 0.9261
vt 0.1447 0.9389
vt 0.1592 0.9044
vt 0.2186 0.8770
vt 0.7816 0.8770
vt 0.3495 0.8648
vt 0.7674 0.9108
vt 0.1877 0.9125
vt 0.9292 0.8019
vt 0.9724 0.1289
vt 0.9310 0.2863
vt 0.0280 0.1289
vt 0.0694 0.6461
vt 0.0657 0.3385
vt 0.1295 0.9312
vt 0.1667 0.9061
vt 0.1777 0.9102
vt 0.1777 0.9085
vt 0.1751 0.9061
vt 0.1695 0.9054
vt 0.3135 0.9010
vt 0.3378 0.8990
vt 0.3839 0.8970
vt 0.4396 0.8956
vt 0.4996 0.8949
vt 0.5597 0.8956
vt 0.6154 0.8970
vt 0.6619 0.8990
vt 0.6867 0.9010
vt 0.7204 0.9058
vt 0.8228 0.9098
vt 0.8214 0.9058
vt 0.8209 0.9075
vt 0.8656 0.9244
vt 0.8551 0.8905
vt 0.8665 0.9244
vt 0.9046 0.8618
vt 0.9100 0.8858
vt 0.8899 0.8848
vt 0.9201 0.8794
vt 0.1211 0.8888
vt 0.1447 0.8878
vt 0.1452 0.8851
vt 0.0797 0.1855
vt 0.1777 0.1814
vt 0.0797 0.1682
vt 0.0680 0.7694
vt 0.0692 0.8452
vt 0.1211 0.8902
vt 0.0774 0.8882
vt 0.0844 0.8844
vt 0.0876 0.8628
vt 0.0804 0.8794
vt 0.1482 0.8831
vt 0.1166 0.8851
vt 0.1202 0.8868
vt 0.0781 0.8574
vt 0.0741 0.8563
vt 0.0760 0.8662
vt 0.9317 0.6556
vt 0.9724 0.9186
vt 0.8052 0.8777
vt 0.7204 0.8645
vt 0.1772 0.8787
vt 0.1646 0.8638
vt 0.1636 0.8797
vt 0.8838 0.8851
vt 0.8525 0.8828
vt 0.9163 0.8844
vt 0.9123 0.8953
vt 0.9558 0.9725
vt 0.9194 0.8932
vt 0.8901 0.9725
vt 0.8794 0.8902
vt 0.8843 0.8939
vt 0.8712 0.9312
vt 0.8908 0.8949
vt 0.8464 0.8811
vt 0.8560 0.8875
vt 0.8805 0.8922
vt 0.9233 0.8882
vt 0.9278 0.8760
vt 0.9296 0.8662
vt 0.9313 0.8452
vt 0.9322 0.8103
vt 0.9327 0.7138
vt 0.9208 0.2047
vt 0.5003 0.1641
vt 0.4812 0.1611
vt 0.4758 0.1628
vt 0.9126 0.8323
vt 0.9126 0.2119
vt 0.0879 0.8323
vt 0.1541 0.8814
vt 0.0783 0.1492
vt 0.0594 0.0294
vt 0.0961 0.8621
vt 0.0907 0.8858
vt 0.0722 0.8360
vt 0.0703 0.3466
vt 0.0671 0.3432
vt 0.0701 0.6536
vt 0.0708 0.6749
vt 0.0729 0.3357
vt 0.0743 0.3073
vt 0.0715 0.8019
vt 0.0879 0.2119
vt 0.9222 0.3100
vt 0.9257 0.2095
vt 0.8368 0.8797
vt 0.9224 0.1492
vt 0.9273 0.1621
vt 0.8583 0.1824
vt 0.9109 0.1841
vt 0.9292 0.7375
vt 0.9303 0.6536
vt 0.2934 0.1404
vt 0.3100 0.1127
vt 0.3032 0.1103
vt 0.2798 0.0280
vt 0.4367 0.1394
vt 0.4564 0.1404
vt 0.3423 0.1668
vt 0.2878 0.1797
vt 0.4480 0.1651
vt 0.2735 0.1421
vt 0.2862 0.1154
vt 0.2824 0.1140
vt 0.4819 0.1479
vt 0.5116 0.1428
vt 0.4777 0.1442
vt 0.2700 0.1103
vt 0.2679 0.1093
vt 0.2616 0.1025
vt 0.5003 0.1628
vt 0.4828 0.1594
vt 0.2406 0.1489
vt 0.5034 0.1651
vt 0.4653 0.1641
vt 0.1800 0.1499
vt 0.2640 0.1012
vt 0.2665 0.1025
vt 0.0732 0.1621
vt 0.0720 0.1695
vt 0.0706 0.1878
vt 0.0699 0.2152
vt 0.0774 0.1709
vt 0.0755 0.1824
vt 0.0689 0.3127
vt 0.0748 0.2095
vt 0.0673 0.3371
vt 0.0680 0.3303
vt 0.0666 0.3371
vt 0.0664 0.3418
vt 0.5289 0.1672
vt 0.7045 0.1049
vt 0.7098 0.1147
vt 0.7122 0.1117
vt 0.5160 0.1414
vt 0.5193 0.1435
vt 0.5155 0.1398
vt 0.6549 0.1062
vt 0.7208 0.0280
vt 0.6462 0.1093
vt 0.5144 0.1398
vt 0.5139 0.1489
vt 0.5167 0.1465
vt 0.4695 0.1418
vt 0.4830 0.1526
vt 0.5022 0.1580
vt 0.5537 0.1408
vt 0.5067 0.1499
vt 0.7120 0.1804
vt 0.6159 0.1685
vt 0.9413 0.0294
vt 0.8181 0.1499
vt 0.7568 0.1489
vt 0.9275 0.3357
vt 0.9264 0.3073
vt 0.9301 0.3466
vt 0.9336 0.3432
vt 0.9324 0.3303
vt 0.9334 0.3371
vt 0.9310 0.2443
vt 0.9299 0.1878
vt 0.9285 0.1695
vt 0.7264 0.1069
vt 0.7239 0.1100
vt 0.7323 0.1428
vt 0.7335 0.1458
vt 0.7395 0.1472
vt 0.6991 0.1404
vt 0.7143 0.1154
vt 0.2766 0.1059
vt 0.2787 0.1059
vt 0.2782 0.1113
vt 0.2742 0.1069
vt 0.2689 0.1052
vt 0.2906 0.1147
vt 0.3332 0.1066
vt 0.3327 0.1056
vt 0.3226 0.1144
vt 0.3074 0.1106
vt 0.3348 0.1042
vt 0.3161 0.1076
vt 0.3086 0.1069
vt 0.3000 0.1025
vt 0.3021 0.1052
vt 0.7218 0.1059
vt 0.7239 0.1059
vt 0.6888 0.1062
vt 0.6918 0.1069
vt 0.6996 0.1042
vt 0.7180 0.1073
vt 0.7047 0.1015
vt 0.6853 0.1144
vt 0.6904 0.1127
vt 0.6657 0.1042
vt 0.6680 0.1059
vt 0.6844 0.1076
vt 0.6617 0.1100
vt 0.6652 0.1394
vt 0.6778 0.1144
vt 0.7180 0.1140
vt 0.3264 0.1394
vt 0.3397 0.1106
vt 0.3119 0.1062
vt 0.3166 0.1147
vt 0.3446 0.1127
vt 0.3544 0.1150
vt 0.3582 0.1150
vt 0.3601 0.1140
vt 0.3593 0.1117
vt 0.3542 0.1089
vt 0.3418 0.1052
vt 0.3037 0.1093
vt 0.2824 0.1073
vt 0.2948 0.1025
vt 0.3011 0.1093
vt 0.3208 0.1106
vt 0.6404 0.1130
vt 0.5880 0.1394
vt 0.6406 0.1144
vt 0.6467 0.1144
vt 0.6932 0.1089
vt 0.6970 0.1093
vt 0.6792 0.1113
vt 0.6932 0.1106
vt 0.7049 0.1022
vt 0.2628 0.1012
vt 0.2703 0.1093
vt 0.3074 0.1089
vt 0.2960 0.1012
vt 0.2974 0.1012
vt 0.2869 0.1100
vt 0.7024 0.1018
vt 0.7017 0.1076
vt 0.9480 0.1513
vt 0.9418 0.1649
vt 0.9455 0.1484
vt 0.9440 0.1667
vt 0.9497 0.1634
vt 0.9015 0.9115
vt 0.8762 0.9075
vt 0.9027 0.9093
vt 0.8579 1.0000
vt 0.8406 0.9358
vt 0.8517 0.9297
vt 0.9599 0.3315
vt 0.9604 0.3287
vt 0.9562 0.6545
vt 0.8685 0.9226
vt 0.8814 0.9563
vt 0.8611 0.9280
vt 0.9475 0.8935
vt 0.9369 0.8832
vt 0.9473 0.8778
vt 0.9532 0.8556
vt 0.9515 0.8771
vt 0.8207 0.9369
vt 0.8334 0.9369
vt 0.1131 0.9491
vt 0.1248 0.9136
vt 0.1320 0.9229
vt 0.1122 0.9491
vt 0.0933 0.9168
vt 0.0973 0.9151
vt 0.0864 0.9179
vt 0.0985 0.9746
vt 0.0636 0.9183
vt 0.0874 1.0000
vt 0.0176 1.0000
vt 0.0564 0.9161
vt 0.0456 0.8875
vt 0.0475 0.8978
vt 0.0000 0.9430
vt 0.0493 0.9036
vt 0.0423 0.7262
vt 0.0431 0.6645
vt 0.2523 0.1226
vt 0.2506 0.1244
vt 0.2436 0.1262
vt 0.1424 1.0000
vt 0.1978 0.9362
vt 0.2409 0.9326
vt 0.1389 0.9280
vt 0.1235 0.9645
vt 0.1149 0.9509
vt 0.3404 0.8860
vt 0.7980 0.8989
vt 0.2018 0.8989
vt 0.7829 0.9348
vt 0.1691 0.9366
vt 0.9542 0.8194
vt 0.9562 0.2735
vt 1.0000 0.1068
vt 0.0399 0.3287
vt 0.0438 0.6545
vt 0.0000 0.1068
vt 0.1075 0.9563
vt 0.1468 0.9297
vt 0.1585 0.9341
vt 0.1557 0.9297
vt 0.1585 0.9323
vt 0.1498 0.9290
vt 0.3023 0.9244
vt 0.3281 0.9222
vt 0.3768 0.9201
vt 0.4358 0.9186
vt 0.4994 0.9179
vt 0.5630 0.9186
vt 0.6219 0.9201
vt 0.6712 0.9222
vt 0.6974 0.9244
vt 0.7331 0.9294
vt 0.8415 0.9337
vt 0.8396 0.9312
vt 0.8401 0.9294
vt 0.8757 0.9133
vt 0.8869 0.9491
vt 0.8878 0.9491
vt 0.9339 0.9082
vt 0.9282 0.8828
vt 0.9126 0.9072
vt 0.9445 0.9014
vt 0.1240 0.9075
vt 0.1235 0.9104
vt 0.0985 0.9115
vt 0.0547 0.1484
vt 0.1585 0.1624
vt 0.0547 0.1667
vt 0.0423 0.7849
vt 0.0436 0.8652
vt 0.0985 0.9129
vt 0.0522 0.9108
vt 0.0555 0.9014
vt 0.0631 0.8839
vt 0.0597 0.9068
vt 0.0975 0.9093
vt 0.0938 0.9075
vt 0.1273 0.9054
vt 0.0508 0.8875
vt 0.0488 0.8771
vt 0.0530 0.8781
vt 1.0000 0.9430
vt 0.9569 0.6645
vt 0.7331 0.8857
vt 0.8230 0.8996
vt 0.1436 0.9018
vt 0.1446 0.8849
vt 0.1580 0.9007
vt 0.8730 0.9050
vt 0.9062 0.9075
vt 0.9406 0.9068
vt 0.9438 0.9161
vt 0.9824 1.0000
vt 0.9364 0.9183
vt 0.9128 1.0000
vt 0.9015 0.9129
vt 0.9136 0.9179
vt 0.8928 0.9563
vt 0.9067 0.9168
vt 0.8666 0.9032
vt 0.8767 0.9100
vt 0.9027 0.9151
vt 0.9480 0.9108
vt 0.9527 0.8978
vt 0.9547 0.8875
vt 0.9564 0.8652
vt 0.9574 0.8283
vt 0.9579 0.7262
vt 0.9453 0.1871
vt 0.4741 0.1427
vt 0.4798 0.1409
vt 0.5001 0.1441
vt 0.0634 0.8516
vt 0.9366 0.1946
vt 0.9366 0.8516
vt 0.1334 0.9036
vt 0.0332 0.0014
vt 0.0532 0.1283
vt 0.0664 0.9082
vt 0.0720 0.8832
vt 0.0468 0.8556
vt 0.0413 0.3337
vt 0.0448 0.3373
vt 0.0475 0.3258
vt 0.0453 0.6849
vt 0.0446 0.6624
vt 0.0490 0.2957
vt 0.0460 0.8194
vt 0.0634 0.1946
vt 0.9505 0.1921
vt 0.9468 0.2986
vt 0.8564 0.9018
vt 0.9522 0.1419
vt 0.9470 0.1283
vt 0.9349 0.1652
vt 0.8792 0.1634
vt 0.9542 0.7513
vt 0.9554 0.6624
vt 0.2914 0.0871
vt 0.2986 0.0896
vt 0.2810 0.1190
vt 0.4536 0.1190
vt 0.4328 0.1179
vt 0.2666 0.0000
vt 0.4447 0.1452
vt 0.2751 0.1606
vt 0.3328 0.1470
vt 0.2694 0.0910
vt 0.2733 0.0925
vt 0.2600 0.1208
vt 0.4761 0.1229
vt 0.5120 0.1215
vt 0.4806 0.1269
vt 0.2540 0.0860
vt 0.2562 0.0871
vt 0.2473 0.0789
vt 0.4816 0.1391
vt 0.5001 0.1427
vt 0.2251 0.1280
vt 0.4630 0.1441
vt 0.5033 0.1452
vt 0.1609 0.1290
vt 0.2525 0.0789
vt 0.2498 0.0774
vt 0.0478 0.1419
vt 0.0465 0.1498
vt 0.0451 0.1692
vt 0.0443 0.1982
vt 0.0503 0.1634
vt 0.0522 0.1513
vt 0.0433 0.3014
vt 0.0495 0.1921
vt 0.0408 0.3272
vt 0.0423 0.3201
vt 0.0416 0.3272
vt 0.0406 0.3323
vt 0.5303 0.1473
vt 0.7244 0.0885
vt 0.7220 0.0918
vt 0.7163 0.0814
vt 0.5162 0.1183
vt 0.5202 0.1222
vt 0.5167 0.1201
vt 0.6546 0.0860
vt 0.7336 0.0000
vt 0.6638 0.0828
vt 0.5150 0.1183
vt 0.5175 0.1254
vt 0.5145 0.1280
vt 0.4674 0.1204
vt 0.5021 0.1376
vt 0.4818 0.1319
vt 0.5566 0.1194
vt 0.5068 0.1290
vt 0.7242 0.1613
vt 0.6224 0.1487
vt 0.8366 0.1290
vt 0.9671 0.0014
vt 0.7717 0.1280
vt 0.9512 0.2957
vt 0.9525 0.3258
vt 0.9552 0.3373
vt 0.9589 0.3337
vt 0.9577 0.3201
vt 0.9587 0.3272
vt 0.9562 0.2290
vt 0.9549 0.1692
vt 0.9535 0.1498
vt 0.7457 0.1215
vt 0.7368 0.0867
vt 0.7395 0.0835
vt 0.7534 0.1262
vt 0.7470 0.1247
vt 0.7267 0.0925
vt 0.7106 0.1190
vt 0.2654 0.0824
vt 0.2632 0.0824
vt 0.2607 0.0835
vt 0.2649 0.0882
vt 0.2550 0.0817
vt 0.2780 0.0918
vt 0.3120 0.0914
vt 0.3226 0.0821
vt 0.3231 0.0832
vt 0.2959 0.0875
vt 0.3050 0.0842
vt 0.3248 0.0806
vt 0.2902 0.0817
vt 0.2879 0.0789
vt 0.2971 0.0835
vt 0.7368 0.0824
vt 0.7346 0.0824
vt 0.7111 0.0806
vt 0.7029 0.0835
vt 0.6997 0.0828
vt 0.7165 0.0778
vt 0.7306 0.0839
vt 0.7014 0.0896
vt 0.6960 0.0914
vt 0.6950 0.0842
vt 0.6776 0.0824
vt 0.6752 0.0806
vt 0.6880 0.0914
vt 0.6747 0.1179
vt 0.6710 0.0867
vt 0.7306 0.0910
vt 0.3300 0.0875
vt 0.3159 0.1179
vt 0.3006 0.0828
vt 0.3055 0.0918
vt 0.3352 0.0896
vt 0.3456 0.0921
vt 0.3496 0.0921
vt 0.3516 0.0910
vt 0.3508 0.0885
vt 0.3454 0.0857
vt 0.3323 0.0817
vt 0.2919 0.0860
vt 0.2825 0.0789
vt 0.2694 0.0839
vt 0.2892 0.0860
vt 0.3100 0.0875
vt 0.6484 0.0900
vt 0.5930 0.1179
vt 0.6487 0.0914
vt 0.6551 0.0914
vt 0.7083 0.0860
vt 0.7044 0.0857
vt 0.6895 0.0882
vt 0.7044 0.0875
vt 0.7168 0.0785
vt 0.2486 0.0774
vt 0.2565 0.0860
vt 0.2959 0.0857
vt 0.2837 0.0774
vt 0.2852 0.0774
vt 0.2741 0.0867
vt 0.7140 0.0781
vt 0.7133 0.0842
vn 0.0000 -1.0000 0.0000
vn 0.0000 1.0000 0.0000
vn 0.0000 0.0000 1.0000
vn 0.0041 0.0000 1.0000
vn 0.9055 0.0000 0.4244
vn 1.0000 0.0000 0.0000
vn 0.9076 0.0000 -0.4199
vn 0.0000 0.0000 -1.0000
vn -0.8239 0.0000 -0.5668
vn -0.6945 0.0000 -0.7195
vn 0.6595 0.0000 -0.7517
vn 0.7783 0.0000 -0.6279
vn -0.7826 0.0000 -0.6225
vn -0.7234 0.0000 -0.6904
vn -0.5675 0.0000 -0.8234
vn 0.7127 0.0000 -0.7015
vn 0.8071 0.0000 -0.5904
vn 0.8359 0.0000 -0.5489
vn -0.9076 0.0000 -0.4199
vn -1.0000 0.0000 0.0000
vn -0.9042 0.0000 0.4270
vn -0.0041 0.0000 1.0000
vn 0.0273 0.0000 -0.9996
vn 0.0498 0.0000 -0.9988
vn 0.1169 0.0000 -0.9931
vn 0.1895 0.0000 -0.9819
vn 0.4070 0.0000 -0.9134
vn 0.9681 0.0000 -0.2507
vn 0.8666 0.0000 0.4989
vn 0.8667 0.0000 0.4989
vn 0.6543 0.0000 0.7562
vn 0.4346 0.0000 0.9006
vn 0.1491 0.0000 0.9888
vn -0.1587 0.0000 0.9873
vn 0.0801 0.0000 0.9968
vn 0.5234 0.0000 0.8521
vn 0.1552 0.0000 0.9879
vn -0.0083 0.0000 1.0000
vn -0.0554 0.0000 0.9985
vn -0.0891 0.0000 0.9960
vn -0.0556 0.0000 0.9985
vn -0.0294 0.0000 0.9996
vn -0.0162 0.0000 0.9999
vn -0.0075 0.0000 1.0000
vn 0.0075 0.0000 1.0000
vn 0.0162 0.0000 0.9999
vn 0.0291 0.0000 0.9996
vn 0.0546 0.0000 0.9985
vn 0.0934 0.0000 0.9956
vn 0.0718 0.0000 0.9974
vn 0.0378 0.0000 0.9993
vn -0.0993 0.0000 0.9951
vn -0.8228 0.0000 0.5683
vn -0.6451 0.0000 -0.7641
vn -0.9237 0.0000 0.3830
vn 0.0205 0.0000 0.9998
vn -0.1260 0.0000 0.9920
vn -0.4346 0.0000 0.9006
vn -0.6543 0.0000 0.7562
vn -0.9084 0.0000 0.4182
vn -0.9589 0.0000 -0.2838
vn -0.4612 0.0000 -0.8873
vn -0.1824 0.0000 -0.9832
vn -0.0938 0.0000 -0.9956
vn -0.0428 0.0000 -0.9991
vn -0.0191 0.0000 -0.9998
vn 0.9939 0.0000 -0.1103
vn 0.9998 0.0000 -0.0181
vn 0.9997 0.0000 0.0231
vn 0.9912 0.0000 0.1325
vn 0.9615 0.0000 0.2748
vn 0.9108 0.0000 0.4128
vn 0.8493 0.0000 0.5280
vn 0.6483 0.0000 0.7614
vn 0.1959 0.0000 0.9806
vn -0.0105 0.0000 0.9999
vn -0.1029 0.0000 0.9947
vn -0.2887 0.0000 0.9574
vn -0.7571 0.0000 0.6533
vn -0.8229 0.0000 -0.5681
vn -0.3062 0.0000 -0.9520
vn 0.0174 0.0000 -0.9998
vn -0.1415 0.0000 -0.9899
vn -0.6484 0.0000 -0.7613
vn -0.8927 0.0000 -0.4506
vn -0.9615 0.0000 -0.2748
vn -0.9906 0.0000 -0.1369
vn -0.9995 0.0000 -0.0308
vn -1.0000 0.0000 -0.0083
vn -0.9988 0.0000 -0.0493
vn -0.9902 0.0000 -0.1399
vn 0.9998 0.0000 -0.0209
vn 0.9992 0.0000 -0.0410
vn 0.9928 0.0000 -0.1200
vn 0.9408 0.0000 -0.3391
vn 0.8706 0.0000 -0.4920
vn 0.6710 0.0000 -0.7415
vn 0.1415 0.0000 -0.9899
vn -0.0336 0.0000 -0.9994
vn 0.0371 0.0000 -0.9993
vn 0.3258 0.0000 -0.9454
vn 0.7569 0.0000 -0.6535
vn 0.7569 0.0000 0.6535
vn 0.2887 0.0000 0.9574
vn 0.1029 0.0000 0.9947
vn 0.0105 0.0000 0.9999
vn -0.1896 0.0000 0.9819
vn -0.6483 0.0000 0.7614
vn -0.8774 0.0000 0.4798
vn -0.9615 0.0000 0.2748
vn -0.9932 0.0000 0.1162
vn -0.9992 0.0000 0.0402
vn -1.0000 0.0000 0.0073
vn -0.9997 0.0000 -0.0241
vn -0.9939 0.0000 -0.1104
vn 0.9902 0.0000 -0.1399
vn -0.0011 0.0000 -1.0000
vn 0.0102 0.0000 -0.9999
vn 0.0276 0.0000 -0.9996
vn 1.0000 0.0000 -0.0037
vn 0.3524 0.0000 0.9358
vn -0.0535 0.0000 0.9986
vn 0.0165 0.0000 0.9999
vn 0.0037 0.0000 1.0000
vn -0.0006 0.0000 1.0000
vn -0.0098 0.0000 1.0000
vn 0.0276 0.0000 0.9996
vn -0.3259 0.0000 0.9454
vn -1.0000 0.0000 -0.0013
vn -0.9998 0.0000 -0.0200
vn -0.9959 0.0000 -0.0905
vn -0.4724 0.0000 -0.8814
vn 0.0344 0.0000 -0.9994
vn -0.0214 0.0000 -0.9998
vn -0.0092 0.0000 -1.0000
vn 0.0205 0.0000 -0.9998
vn 0.0567 0.0000 -0.9984
vn 0.1538 0.0000 -0.9881
vn 0.5675 0.0000 -0.8234
vn 0.1699 0.0000 -0.9855
vn 0.0642 0.0000 -0.9979
vn 0.0112 0.0000 -0.9999
vn -0.0044 0.0000 -1.0000
vn 0.8575 0.0000 -0.5144
vn 0.9734 0.0000 -0.2292
vn 0.9934 0.0000 -0.1144
vn 0.9993 0.0000 -0.0383
vn 0.9999 0.0000 -0.0144
vn 0.9968 0.0000 -0.0795
vn 0.9881 0.0000 -0.1535
vn 0.6946 0.0000 -0.7194
vn 0.9550 0.0000 0.2967
vn 0.7894 0.0000 0.6139
vn 0.5676 0.0000 0.8233
vn -0.9420 0.0000 0.3355
vn -0.9973 0.0000 0.0738
vn -1.0000 0.0000 0.0072
vn -0.9992 0.0000 0.0388
vn -0.9716 0.0000 0.2368
vn -0.6111 0.0000 0.7916
vn -0.0034 0.0000 1.0000
vn -0.0107 0.0000 0.9999
vn -0.0391 0.0000 0.9992
vn -0.0855 0.0000 0.9963
vn -0.2054 0.0000 0.9787
vn -0.5675 0.0000 0.8234
vn -0.9987 0.0000 0.0517
vn -0.9379 0.0000 -0.3470
vn -0.5080 0.0000 -0.8614
vn -0.1896 0.0000 -0.9819
vn -0.0688 0.0000 -0.9976
vn -0.0345 0.0000 -0.9994
vn 0.0263 0.0000 -0.9997
vn 0.0524 0.0000 -0.9986
vn 0.6197 0.0000 -0.7848
vn 0.4906 0.0000 -0.8714
vn -0.9207 0.0000 0.3903
vn -0.9238 0.0000 -0.3829
vn 0.5863 0.0000 -0.8101
vn 0.6945 0.0000 -0.7195
vn 0.7731 0.0000 -0.6342
vn 0.8605 0.0000 -0.5095
vn 0.2173 0.0000 0.9761
vn 0.0531 0.0000 0.9986
vn 0.0104 0.0000 0.9999
vn -0.0007 0.0000 1.0000
vn 0.6111 0.0000 0.7916
vn 0.6111 0.0000 0.7915
vn 0.9780 0.0000 0.2086
vn 0.9992 0.0000 0.0388
vn 0.9999 0.0000 0.0108
vn 0.9981 0.0000 0.0616
vn 0.9420 0.0000 0.3355
vn -0.5411 0.0000 0.8409
vn -0.8227 0.0000 0.5685
vn -0.9681 0.0000 0.2507
vn -0.4830 0.0000 -0.8756
vn -0.9792 0.0000 -0.2029
vn -0.9989 0.0000 -0.0478
vn -0.9995 0.0000 -0.0310
vn -0.9934 0.0000 -0.1144
vn -0.9734 0.0000 -0.2292
vn -0.8678 0.0000 -0.4969
vn 0.0043 0.0000 -1.0000
vn -0.0111 0.0000 -0.9999
vn -0.0651 0.0000 -0.9979
vn -0.1469 0.0000 -0.9892
vn -0.8667 0.0000 -0.4989
vn -0.0475 0.0000 -0.9989
vn -0.0200 0.0000 -0.9998
vn 0.2782 0.0000 -0.9605
vn 0.2781 0.0000 -0.9605
vn 0.5938 0.0000 0.8046
vn 0.3942 0.0000 0.9190
vn 0.2345 0.0000 0.9721
vn -0.1010 0.0000 0.9949
vn -0.6452 0.0000 -0.7640
vn -0.3765 0.0000 -0.9264
vn -0.2346 0.0000 -0.9721
vn 0.2346 0.0000 -0.9721
vn 0.4485 0.0000 -0.8938
vn 0.6559 0.0000 -0.7548
vn 0.1010 0.0000 0.9949
vn -0.2345 0.0000 0.9721
vn -0.4204 0.0000 0.9074
vn -0.6197 0.0000 0.7848
vn -0.2546 0.0000 -0.9671
vn -0.2546 0.0000 -0.9670
vn 0.8229 0.0000 0.5681
vn 0.3822 0.0000 0.9241
vn 0.2658 0.0000 0.9640
vn 0.1588 0.0000 0.9873
vn -0.3402 0.0000 0.9404
vn -0.9140 0.0000 -0.4057
vn -0.3311 0.0000 -0.9436
vn -0.1964 0.0000 -0.9805
vn -0.0960 0.0000 -0.9954
vn 0.3941 0.0000 -0.9191
vn 0.7570 0.0000 -0.6535
vn 0.4658 0.0000 0.8849
vn 0.2026 0.0000 0.9793
vn -0.0371 0.0000 0.9993
vn -0.7986 0.0000 -0.6019
vn -0.3984 0.0000 -0.9172
vn -0.2097 0.0000 -0.9778
vn 0.1366 0.0000 -0.9906
vn 0.1249 0.0000 -0.9922
vn 0.2285 0.0000 -0.9735
vn 0.3909 0.0000 -0.9204
vn 0.9681 0.0000 0.2506
vn -0.1924 0.0000 0.9813
vn -0.3942 0.0000 0.9190
vn -0.4345 0.0000 -0.9007
vn 0.4346 0.0000 -0.9006
vn 0.8228 0.0000 -0.5684
vn -0.2143 0.0000 0.9768
vn -0.6944 0.0000 -0.7196
vn -0.1469 0.0000 -0.9891
vn 0.1992 0.0000 -0.9800
vn 0.6110 0.0000 -0.7916
vn 0.5816 0.0000 0.8135
vn 0.3063 0.0000 0.9519
vn -0.9453 0.0000 0.3263
vn -0.8879 0.0000 -0.4600
vn -0.6111 0.0000 -0.7916
vn -0.8558 0.0000 -0.5172
vn -0.6511 0.0000 -0.7590
vn -0.3310 0.0000 -0.9436
vn 0.4907 0.0000 -0.8714
vn 0.4907 0.0000 -0.8713
vn 0.7962 0.0000 -0.6050
vn -0.5411 0.0000 0.8410
vn -0.9681 0.0000 0.2506
vn -0.8878 0.0000 -0.4602
vn 0.0959 0.0000 -0.9954
usemtl None
s off
f 1/1/1 2/2/1 3/3/1
f 4/4/1 2/2/1 5/5/1
f 6/6/1 7/7/1 8/8/1
f 9/9/1 10/10/1 11/11/1
f 12/12/1 13/13/1 14/14/1
f 15/15/1 16/16/1 17/17/1
f 18/18/1 19/19/1 20/20/1
f 21/21/1 22/22/1 18/18/1
f 23/23/1 24/24/1 11/11/1
f 25/25/1 26/26/1 27/27/1
f 28/28/1 29/29/1 30/30/1
f 31/31/1 32/32/1 33/33/1
f 32/32/1 31/31/1 34/34/1
f 31/31/1 35/35/1 36/36/1
f 37/37/1 38/38/1 39/39/1
f 37/37/1 40/40/1 38/38/1
f 41/41/1 37/37/1 42/42/1
f 43/43/1 44/44/1 45/45/1
f 46/46/1 47/47/1 48/48/1
f 49/49/1 50/50/1 51/51/1
f 52/52/1 53/53/1 54/54/1
f 55/55/1 11/11/1 24/24/1
f 56/56/1 48/48/1 47/47/1
f 22/22/1 57/57/1 18/18/1
f 13/13/1 58/58/1 59/59/1
f 60/60/1 61/61/1 62/62/1
f 63/63/1 33/33/1 32/32/1
f 30/30/1 27/27/1 26/26/1
f 27/27/1 49/49/1 25/25/1
f 25/25/1 49/49/1 51/51/1
f 51/51/1 50/50/1 64/64/1
f 64/64/1 50/50/1 65/65/1
f 65/65/1 66/66/1 67/67/1
f 68/68/1 65/65/1 67/67/1
f 68/68/1 64/64/1 65/65/1
f 65/65/1 50/50/1 48/48/1
f 56/56/1 65/65/1 48/48/1
f 48/48/1 69/69/1 46/46/1
f 48/48/1 70/70/1 69/69/1
f 48/48/1 71/71/1 70/70/1
f 48/48/1 72/72/1 71/71/1
f 48/48/1 73/73/1 72/72/1
f 48/48/1 11/11/1 73/73/1
f 73/73/1 11/11/1 74/74/1
f 74/74/1 11/11/1 75/75/1
f 75/75/1 11/11/1 76/76/1
f 76/76/1 11/11/1 77/77/1
f 77/77/1 11/11/1 78/78/1
f 78/78/1 11/11/1 55/55/1
f 11/11/1 10/10/1 23/23/1
f 9/9/1 79/79/1 10/10/1
f 16/16/1 9/9/1 11/11/1
f 79/79/1 80/80/1 81/81/1
f 79/79/1 9/9/1 80/80/1
f 16/16/1 15/15/1 9/9/1
f 17/17/1 82/82/1 83/83/1
f 16/16/1 82/82/1 17/17/1
f 83/83/1 82/82/1 84/84/1
f 85/85/1 86/86/1 19/19/1
f 86/86/1 85/85/1 87/87/1
f 21/21/1 18/18/1 20/20/1
f 19/19/1 88/88/1 20/20/1
f 89/89/1 90/90/1 91/91/1
f 92/92/1 93/93/1 94/94/1
f 61/61/1 60/60/1 41/41/1
f 41/41/1 60/60/1 37/37/1
f 42/42/1 37/37/1 95/95/1
f 95/95/1 37/37/1 96/96/1
f 26/26/1 97/97/1 30/30/1
f 37/37/1 39/39/1 96/96/1
f 90/90/1 97/97/1 26/26/1
f 37/37/1 98/98/1 40/40/1
f 99/99/1 100/100/1 101/101/1
f 37/37/1 35/35/1 98/98/1
f 35/35/1 37/37/1 36/36/1
f 31/31/1 36/36/1 34/34/1
f 63/63/1 29/29/1 33/33/1
f 63/63/1 30/30/1 29/29/1
f 30/30/1 97/97/1 28/28/1
f 90/90/1 89/89/1 97/97/1
f 102/102/1 103/103/1 104/104/1
f 104/104/1 91/91/1 102/102/1
f 89/89/1 91/91/1 104/104/1
f 105/105/1 106/106/1 107/107/1
f 58/58/1 108/108/1 109/109/1
f 105/105/1 107/107/1 100/100/1
f 100/100/1 107/107/1 101/101/1
f 53/53/1 110/110/1 111/111/1
f 112/112/1 113/113/1 114/114/1
f 52/52/1 54/54/1 113/113/1
f 54/54/1 53/53/1 111/111/1
f 115/115/1 85/85/1 116/116/1
f 87/87/1 85/85/1 115/115/1
f 86/86/1 117/117/1 19/19/1
f 117/117/1 88/88/1 19/19/1
f 118/118/1 119/119/1 120/120/1
f 119/119/1 118/118/1 121/121/1
f 84/84/1 122/122/1 83/83/1
f 123/123/1 124/124/1 125/125/1
f 116/116/1 6/6/1 115/115/1
f 126/126/1 116/116/1 85/85/1
f 116/116/1 7/7/1 6/6/1
f 7/7/1 127/127/1 8/8/1
f 122/122/1 127/127/1 83/83/1
f 8/8/1 127/127/1 122/122/1
f 122/122/1 84/84/1 128/128/1
f 128/128/1 84/84/1 123/123/1
f 123/123/1 84/84/1 124/124/1
f 125/125/1 124/124/1 121/121/1
f 121/121/1 118/118/1 125/125/1
f 120/120/1 119/119/1 109/109/1
f 129/129/1 120/120/1 109/109/1
f 109/109/1 130/130/1 129/129/1
f 109/109/1 131/131/1 130/130/1
f 132/132/1 131/131/1 109/109/1
f 133/133/1 132/132/1 109/109/1
f 134/134/1 133/133/1 109/109/1
f 12/12/1 108/108/1 58/58/1
f 108/108/1 134/134/1 109/109/1
f 4/4/1 5/5/1 135/135/1
f 136/136/1 137/137/1 138/138/1
f 139/139/1 140/140/1 141/141/1
f 142/142/1 113/113/1 102/102/1
f 60/60/1 143/143/1 144/144/1
f 145/145/1 100/100/1 146/146/1
f 100/100/1 99/99/1 146/146/1
f 105/105/1 147/147/1 106/106/1
f 61/61/1 148/148/1 149/149/1
f 150/150/1 151/151/1 152/152/1
f 151/151/1 153/153/1 152/152/1
f 154/154/1 105/105/1 151/151/1
f 147/147/1 105/105/1 154/154/1
f 103/103/1 145/145/1 146/146/1
f 102/102/1 145/145/1 103/103/1
f 113/113/1 145/145/1 102/102/1
f 114/114/1 113/113/1 142/142/1
f 141/141/1 140/140/1 155/155/1
f 52/52/1 113/113/1 112/112/1
f 156/156/1 157/157/1 135/135/1
f 110/110/1 85/85/1 111/111/1
f 126/126/1 85/85/1 158/158/1
f 158/158/1 85/85/1 110/110/1
f 58/58/1 159/159/1 160/160/1
f 1/1/1 161/161/1 162/162/1
f 57/57/1 163/163/1 18/18/1
f 163/163/1 164/164/1 18/18/1
f 12/12/1 156/156/1 164/164/1
f 164/164/1 156/156/1 18/18/1
f 165/165/1 166/166/1 167/167/1
f 168/168/1 169/169/1 170/170/1
f 171/171/1 172/172/1 173/173/1
f 174/174/1 175/175/1 176/176/1
f 177/177/1 178/178/1 179/179/1
f 45/45/1 180/180/1 181/181/1
f 43/43/1 181/181/1 182/182/1
f 183/183/1 184/184/1 136/136/1
f 43/43/1 182/182/1 185/185/1
f 186/186/1 138/138/1 187/187/1
f 144/144/1 188/188/1 168/168/1
f 168/168/1 189/189/1 190/190/1
f 143/143/1 188/188/1 144/144/1
f 191/191/1 143/143/1 60/60/1
f 192/192/1 191/191/1 60/60/1
f 60/60/1 193/193/1 192/192/1
f 61/61/1 152/152/1 148/148/1
f 60/60/1 194/194/1 193/193/1
f 92/92/1 195/195/1 196/196/1
f 60/60/1 197/197/1 194/194/1
f 153/153/1 92/92/1 198/198/1
f 199/199/1 200/200/1 201/201/1
f 201/201/1 200/200/1 62/62/1
f 62/62/1 200/200/1 197/197/1
f 62/62/1 61/61/1 202/202/1
f 60/60/1 62/62/1 197/197/1
f 202/202/1 61/61/1 149/149/1
f 61/61/1 150/150/1 152/152/1
f 151/151/1 105/105/1 153/153/1
f 153/153/1 105/105/1 92/92/1
f 92/92/1 196/196/1 198/198/1
f 92/92/1 94/94/1 195/195/1
f 203/203/1 186/186/1 173/173/1
f 93/93/1 171/171/1 94/94/1
f 172/172/1 171/171/1 93/93/1
f 3/3/1 2/2/1 4/4/1
f 204/204/1 205/205/1 206/206/1
f 207/207/1 208/208/1 209/209/1
f 210/210/1 211/211/1 212/212/1
f 211/211/1 168/168/1 213/213/1
f 207/207/1 214/214/1 215/215/1
f 216/216/1 179/179/1 213/213/1
f 170/170/1 216/216/1 213/213/1
f 213/213/1 179/179/1 178/178/1
f 217/217/1 218/218/1 177/177/1
f 217/217/1 183/183/1 218/218/1
f 209/209/1 208/208/1 219/219/1
f 207/207/1 215/215/1 208/208/1
f 213/213/1 209/209/1 211/211/1
f 209/209/1 219/219/1 211/211/1
f 213/213/1 168/168/1 170/170/1
f 220/220/1 178/178/1 177/177/1
f 218/218/1 220/220/1 177/177/1
f 217/217/1 184/184/1 183/183/1
f 184/184/1 137/137/1 136/136/1
f 136/136/1 138/138/1 186/186/1
f 186/186/1 187/187/1 173/173/1
f 221/221/1 203/203/1 172/172/1
f 203/203/1 173/173/1 172/172/1
f 222/222/1 203/203/1 221/221/1
f 1/1/1 162/162/1 2/2/1
f 221/221/1 1/1/1 222/222/1
f 161/161/1 1/1/1 221/221/1
f 223/223/1 224/224/1 159/159/1
f 211/211/1 225/225/1 224/224/1
f 157/157/1 4/4/1 135/135/1
f 226/226/1 227/227/1 156/156/1
f 227/227/1 157/157/1 156/156/1
f 12/12/1 226/226/1 156/156/1
f 12/12/1 58/58/1 13/13/1
f 12/12/1 228/228/1 226/226/1
f 12/12/1 229/229/1 228/228/1
f 12/12/1 14/14/1 229/229/1
f 13/13/1 59/59/1 230/230/1
f 13/13/1 230/230/1 231/231/1
f 59/59/1 58/58/1 232/232/1
f 58/58/1 233/233/1 232/232/1
f 58/58/1 234/234/1 233/233/1
f 58/58/1 160/160/1 234/234/1
f 223/223/1 159/159/1 58/58/1
f 211/211/1 224/224/1 223/223/1
f 235/235/1 236/236/1 237/237/1
f 238/238/1 239/239/1 237/237/1
f 239/239/1 235/235/1 237/237/1
f 240/240/1 241/241/1 205/205/1
f 45/45/1 174/174/1 180/180/1
f 242/242/1 243/243/1 168/168/1
f 244/244/1 245/245/1 180/180/1
f 245/245/1 242/242/1 246/246/1
f 244/244/1 174/174/1 176/176/1
f 174/174/1 165/165/1 175/175/1
f 175/175/1 165/165/1 247/247/1
f 248/248/1 249/249/1 250/250/1
f 166/166/1 251/251/1 167/167/1
f 249/249/1 252/252/1 253/253/1
f 254/254/1 255/255/1 256/256/1
f 239/239/1 225/225/1 235/235/1
f 257/257/1 258/258/1 211/211/1
f 259/259/1 260/260/1 261/261/1
f 262/262/1 257/257/1 263/263/1
f 264/264/1 240/240/1 265/265/1
f 266/266/1 267/267/1 268/268/1
f 269/269/1 270/270/1 271/271/1
f 237/237/1 241/241/1 240/240/1
f 237/237/1 272/272/1 241/241/1
f 237/237/1 236/236/1 272/272/1
f 258/258/1 235/235/1 211/211/1
f 235/235/1 225/225/1 211/211/1
f 250/250/1 273/273/1 274/274/1
f 252/252/1 275/275/1 253/253/1
f 166/166/1 273/273/1 276/276/1
f 274/274/1 273/273/1 277/277/1
f 277/277/1 273/273/1 278/278/1
f 278/278/1 273/273/1 279/279/1
f 279/279/1 273/273/1 169/169/1
f 280/280/1 279/279/1 169/169/1
f 168/168/1 281/281/1 169/169/1
f 281/281/1 280/280/1 169/169/1
f 282/282/1 281/281/1 168/168/1
f 252/252/1 283/283/1 168/168/1
f 283/283/1 282/282/1 168/168/1
f 275/275/1 168/168/1 255/255/1
f 275/275/1 252/252/1 168/168/1
f 284/284/1 167/167/1 251/251/1
f 243/243/1 285/285/1 286/286/1
f 167/167/1 287/287/1 247/247/1
f 273/273/1 166/166/1 165/165/1
f 276/276/1 273/273/1 250/250/1
f 250/250/1 274/274/1 248/248/1
f 249/249/1 288/288/1 250/250/1
f 249/249/1 253/253/1 288/288/1
f 259/259/1 211/211/1 266/266/1
f 266/266/1 211/211/1 210/210/1
f 211/211/1 289/289/1 212/212/1
f 211/211/1 219/219/1 289/289/1
f 289/289/1 219/219/1 290/290/1
f 270/270/1 291/291/1 290/290/1
f 291/291/1 289/289/1 290/290/1
f 270/270/1 292/292/1 291/291/1
f 267/267/1 269/269/1 271/271/1
f 269/269/1 292/292/1 270/270/1
f 293/293/1 294/294/1 260/260/1
f 259/259/1 266/266/1 268/268/1
f 268/268/1 267/267/1 295/295/1
f 295/295/1 267/267/1 271/271/1
f 271/271/1 270/270/1 264/264/1
f 264/264/1 270/270/1 240/240/1
f 265/265/1 240/240/1 296/296/1
f 296/296/1 240/240/1 294/294/1
f 240/240/1 205/205/1 294/294/1
f 262/262/1 263/263/1 297/297/1
f 206/206/1 262/262/1 297/297/1
f 190/190/1 242/242/1 168/168/1
f 182/182/1 298/298/1 168/168/1
f 298/298/1 189/189/1 168/168/1
f 185/185/1 182/182/1 188/188/1
f 182/182/1 168/168/1 188/188/1
f 45/45/1 181/181/1 43/43/1
f 180/180/1 174/174/1 244/244/1
f 299/299/1 180/180/1 245/245/1
f 245/245/1 246/246/1 299/299/1
f 242/242/1 190/190/1 246/246/1
f 284/284/1 251/251/1 300/300/1
f 301/301/1 243/243/1 286/286/1
f 243/243/1 301/301/1 168/168/1
f 301/301/1 302/302/1 168/168/1
f 247/247/1 286/286/1 303/303/1
f 286/286/1 285/285/1 303/303/1
f 247/247/1 287/287/1 286/286/1
f 300/300/1 254/254/1 256/256/1
f 165/165/1 167/167/1 247/247/1
f 300/300/1 256/256/1 284/284/1
f 254/254/1 275/275/1 255/255/1
f 255/255/1 168/168/1 302/302/1
f 261/261/1 304/304/1 259/259/1
f 263/263/1 257/257/1 211/211/1
f 259/259/1 304/304/1 211/211/1
f 304/304/1 263/263/1 211/211/1
f 294/294/1 261/261/1 260/260/1
f 296/296/1 294/294/1 293/293/1
f 294/294/1 205/205/1 305/305/1
f 205/205/1 204/204/1 305/305/1
f 206/206/1 297/297/1 204/204/1
f 306/306/2 307/307/2 308/308/2
f 309/309/2 307/307/2 310/310/2
f 311/311/2 312/312/2 313/313/2
f 314/314/2 315/315/2 316/316/2
f 317/317/2 318/318/2 319/319/2
f 320/320/2 321/321/2 322/322/2
f 323/323/2 324/324/2 325/325/2
f 325/325/2 326/326/2 327/327/2
f 314/314/2 328/328/2 329/329/2
f 330/330/2 331/331/2 332/332/2
f 333/333/2 334/334/2 335/335/2
f 336/336/2 337/337/2 338/338/2
f 339/339/2 338/338/2 337/337/2
f 340/340/2 341/341/2 338/338/2
f 342/342/2 343/343/2 344/344/2
f 343/343/2 345/345/2 344/344/2
f 346/346/2 344/344/2 347/347/2
f 348/348/2 349/349/2 350/350/2
f 351/351/2 352/352/2 353/353/2
f 354/354/2 355/355/2 356/356/2
f 357/357/2 358/358/2 359/359/2
f 328/328/2 314/314/2 360/360/2
f 352/352/2 351/351/2 361/361/2
f 325/325/2 362/362/2 326/326/2
f 363/363/2 364/364/2 318/318/2
f 365/365/2 366/366/2 367/367/2
f 337/337/2 336/336/2 368/368/2
f 331/331/2 330/330/2 333/333/2
f 332/332/2 356/356/2 330/330/2
f 354/354/2 356/356/2 332/332/2
f 369/369/2 355/355/2 354/354/2
f 370/370/2 355/355/2 369/369/2
f 371/371/2 372/372/2 370/370/2
f 371/371/2 370/370/2 373/373/2
f 370/370/2 369/369/2 373/373/2
f 351/351/2 355/355/2 370/370/2
f 351/351/2 370/370/2 361/361/2
f 353/353/2 374/374/2 351/351/2
f 374/374/2 375/375/2 351/351/2
f 375/375/2 376/376/2 351/351/2
f 376/376/2 377/377/2 351/351/2
f 377/377/2 378/378/2 351/351/2
f 378/378/2 314/314/2 351/351/2
f 379/379/2 314/314/2 378/378/2
f 380/380/2 314/314/2 379/379/2
f 381/381/2 314/314/2 380/380/2
f 382/382/2 314/314/2 381/381/2
f 383/383/2 314/314/2 382/382/2
f 360/360/2 314/314/2 383/383/2
f 329/329/2 315/315/2 314/314/2
f 315/315/2 384/384/2 316/316/2
f 314/314/2 316/316/2 321/321/2
f 385/385/2 386/386/2 384/384/2
f 386/386/2 316/316/2 384/384/2
f 316/316/2 322/322/2 321/321/2
f 387/387/2 388/388/2 320/320/2
f 320/320/2 388/388/2 321/321/2
f 389/389/2 388/388/2 387/387/2
f 324/324/2 390/390/2 391/391/2
f 392/392/2 391/391/2 390/390/2
f 323/323/2 325/325/2 327/327/2
f 323/323/2 393/393/2 324/324/2
f 394/394/2 395/395/2 396/396/2
f 397/397/2 398/398/2 399/399/2
f 347/347/2 367/367/2 366/366/2
f 344/344/2 367/367/2 347/347/2
f 400/400/2 344/344/2 346/346/2
f 401/401/2 344/344/2 400/400/2
f 333/333/2 402/402/2 331/331/2
f 401/401/2 342/342/2 344/344/2
f 331/331/2 402/402/2 395/395/2
f 345/345/2 403/403/2 344/344/2
f 404/404/2 405/405/2 406/406/2
f 403/403/2 341/341/2 344/344/2
f 340/340/2 344/344/2 341/341/2
f 339/339/2 340/340/2 338/338/2
f 336/336/2 334/334/2 368/368/2
f 334/334/2 333/333/2 368/368/2
f 335/335/2 402/402/2 333/333/2
f 402/402/2 396/396/2 395/395/2
f 407/407/2 408/408/2 409/409/2
f 409/409/2 394/394/2 407/407/2
f 407/407/2 394/394/2 396/396/2
f 410/410/2 411/411/2 412/412/2
f 413/413/2 414/414/2 364/364/2
f 405/405/2 410/410/2 412/412/2
f 404/404/2 410/410/2 405/405/2
f 415/415/2 416/416/2 358/358/2
f 417/417/2 418/418/2 419/419/2
f 418/418/2 357/357/2 359/359/2
f 415/415/2 358/358/2 357/357/2
f 420/420/2 391/391/2 421/421/2
f 421/421/2 391/391/2 392/392/2
f 324/324/2 422/422/2 390/390/2
f 324/324/2 393/393/2 422/422/2
f 423/423/2 424/424/2 425/425/2
f 426/426/2 425/425/2 424/424/2
f 387/387/2 427/427/2 389/389/2
f 428/428/2 429/429/2 430/430/2
f 421/421/2 313/313/2 420/420/2
f 391/391/2 420/420/2 431/431/2
f 313/313/2 312/312/2 420/420/2
f 311/311/2 432/432/2 312/312/2
f 387/387/2 432/432/2 427/427/2
f 427/427/2 432/432/2 311/311/2
f 433/433/2 389/389/2 427/427/2
f 430/430/2 389/389/2 433/433/2
f 429/429/2 389/389/2 430/430/2
f 426/426/2 429/429/2 428/428/2
f 428/428/2 425/425/2 426/426/2
f 413/413/2 424/424/2 423/423/2
f 413/413/2 423/423/2 434/434/2
f 434/434/2 435/435/2 413/413/2
f 435/435/2 436/436/2 413/413/2
f 413/413/2 436/436/2 437/437/2
f 413/413/2 437/437/2 438/438/2
f 413/413/2 438/438/2 439/439/2
f 364/364/2 414/414/2 319/319/2
f 413/413/2 439/439/2 414/414/2
f 440/440/2 309/309/2 310/310/2
f 441/441/2 442/442/2 443/443/2
f 444/444/2 445/445/2 446/446/2
f 409/409/2 418/418/2 447/447/2
f 448/448/2 449/449/2 367/367/2
f 450/450/2 405/405/2 451/451/2
f 450/450/2 406/406/2 405/405/2
f 411/411/2 452/452/2 412/412/2
f 453/453/2 454/454/2 366/366/2
f 455/455/2 456/456/2 457/457/2
f 455/455/2 458/458/2 456/456/2
f 456/456/2 412/412/2 459/459/2
f 459/459/2 412/412/2 452/452/2
f 450/450/2 451/451/2 408/408/2
f 408/408/2 451/451/2 409/409/2
f 409/409/2 451/451/2 418/418/2
f 447/447/2 418/418/2 417/417/2
f 460/460/2 445/445/2 444/444/2
f 419/419/2 418/418/2 359/359/2
f 440/440/2 461/461/2 462/462/2
f 415/415/2 391/391/2 416/416/2
f 463/463/2 391/391/2 431/431/2
f 416/416/2 391/391/2 463/463/2
f 464/464/2 465/465/2 364/364/2
f 466/466/2 467/467/2 308/308/2
f 325/325/2 468/468/2 362/362/2
f 325/325/2 469/469/2 468/468/2
f 469/469/2 462/462/2 319/319/2
f 325/325/2 462/462/2 469/469/2
f 470/470/2 471/471/2 472/472/2
f 473/473/2 474/474/2 475/475/2
f 476/476/2 477/477/2 478/478/2
f 479/479/2 480/480/2 481/481/2
f 482/482/2 483/483/2 484/484/2
f 485/485/2 486/486/2 348/348/2
f 487/487/2 485/485/2 350/350/2
f 443/443/2 488/488/2 489/489/2
f 490/490/2 487/487/2 350/350/2
f 491/491/2 441/441/2 492/492/2
f 475/475/2 493/493/2 448/448/2
f 494/494/2 495/495/2 475/475/2
f 448/448/2 493/493/2 449/449/2
f 367/367/2 449/449/2 496/496/2
f 367/367/2 496/496/2 497/497/2
f 497/497/2 498/498/2 367/367/2
f 454/454/2 455/455/2 366/366/2
f 498/498/2 499/499/2 367/367/2
f 500/500/2 501/501/2 399/399/2
f 499/499/2 502/502/2 367/367/2
f 503/503/2 399/399/2 458/458/2
f 504/504/2 505/505/2 506/506/2
f 365/365/2 505/505/2 504/504/2
f 502/502/2 505/505/2 365/365/2
f 507/507/2 366/366/2 365/365/2
f 502/502/2 365/365/2 367/367/2
f 453/453/2 366/366/2 507/507/2
f 455/455/2 457/457/2 366/366/2
f 458/458/2 412/412/2 456/456/2
f 399/399/2 412/412/2 458/458/2
f 503/503/2 500/500/2 399/399/2
f 501/501/2 397/397/2 399/399/2
f 476/476/2 492/492/2 508/508/2
f 397/397/2 478/478/2 398/398/2
f 398/398/2 478/478/2 477/477/2
f 310/310/2 307/307/2 306/306/2
f 509/509/2 510/510/2 511/511/2
f 512/512/2 513/513/2 514/514/2
f 515/515/2 516/516/2 517/517/2
f 518/518/2 475/475/2 516/516/2
f 519/519/2 520/520/2 514/514/2
f 518/518/2 482/482/2 521/521/2
f 518/518/2 521/521/2 473/473/2
f 483/483/2 482/482/2 518/518/2
f 484/484/2 522/522/2 523/523/2
f 522/522/2 489/489/2 523/523/2
f 524/524/2 513/513/2 512/512/2
f 513/513/2 519/519/2 514/514/2
f 516/516/2 512/512/2 518/518/2
f 516/516/2 524/524/2 512/512/2
f 473/473/2 475/475/2 518/518/2
f 484/484/2 483/483/2 525/525/2
f 484/484/2 525/525/2 522/522/2
f 489/489/2 488/488/2 523/523/2
f 443/443/2 442/442/2 488/488/2
f 492/492/2 441/441/2 443/443/2
f 476/476/2 491/491/2 492/492/2
f 477/477/2 508/508/2 526/526/2
f 477/477/2 476/476/2 508/508/2
f 526/526/2 508/508/2 527/527/2
f 307/307/2 466/466/2 308/308/2
f 527/527/2 308/308/2 526/526/2
f 526/526/2 308/308/2 467/467/2
f 465/465/2 528/528/2 529/529/2
f 528/528/2 530/530/2 516/516/2
f 440/440/2 310/310/2 461/461/2
f 462/462/2 531/531/2 532/532/2
f 462/462/2 461/461/2 531/531/2
f 462/462/2 532/532/2 319/319/2
f 318/318/2 364/364/2 319/319/2
f 532/532/2 533/533/2 319/319/2
f 533/533/2 534/534/2 319/319/2
f 534/534/2 317/317/2 319/319/2
f 535/535/2 363/363/2 318/318/2
f 536/536/2 535/535/2 318/318/2
f 537/537/2 364/364/2 363/363/2
f 537/537/2 538/538/2 364/364/2
f 538/538/2 539/539/2 364/364/2
f 539/539/2 464/464/2 364/364/2
f 364/364/2 465/465/2 529/529/2
f 529/529/2 528/528/2 516/516/2
f 540/540/2 541/541/2 542/542/2
f 540/540/2 543/543/2 544/544/2
f 540/540/2 542/542/2 543/543/2
f 510/510/2 545/545/2 546/546/2
f 486/486/2 481/481/2 348/348/2
f 475/475/2 547/547/2 548/548/2
f 486/486/2 549/549/2 550/550/2
f 551/551/2 548/548/2 549/549/2
f 479/479/2 481/481/2 550/550/2
f 480/480/2 472/472/2 481/481/2
f 552/552/2 472/472/2 480/480/2
f 553/553/2 554/554/2 555/555/2
f 470/470/2 556/556/2 471/471/2
f 557/557/2 558/558/2 554/554/2
f 559/559/2 560/560/2 561/561/2
f 542/542/2 530/530/2 543/543/2
f 516/516/2 562/562/2 563/563/2
f 564/564/2 565/565/2 566/566/2
f 567/567/2 563/563/2 568/568/2
f 569/569/2 546/546/2 570/570/2
f 571/571/2 572/572/2 573/573/2
f 574/574/2 575/575/2 576/576/2
f 546/546/2 545/545/2 540/540/2
f 545/545/2 577/577/2 540/540/2
f 577/577/2 541/541/2 540/540/2
f 516/516/2 542/542/2 562/562/2
f 516/516/2 530/530/2 542/542/2
f 578/578/2 579/579/2 553/553/2
f 557/557/2 580/580/2 558/558/2
f 581/581/2 579/579/2 471/471/2
f 582/582/2 579/579/2 578/578/2
f 583/583/2 579/579/2 582/582/2
f 584/584/2 579/579/2 583/583/2
f 474/474/2 579/579/2 584/584/2
f 474/474/2 584/584/2 585/585/2
f 474/474/2 586/586/2 475/475/2
f 474/474/2 585/585/2 586/586/2
f 475/475/2 586/586/2 587/587/2
f 475/475/2 588/588/2 558/558/2
f 475/475/2 587/587/2 588/588/2
f 560/560/2 475/475/2 580/580/2
f 475/475/2 558/558/2 580/580/2
f 556/556/2 470/470/2 589/589/2
f 590/590/2 591/591/2 547/547/2
f 552/552/2 592/592/2 470/470/2
f 472/472/2 471/471/2 579/579/2
f 553/553/2 579/579/2 581/581/2
f 555/555/2 578/578/2 553/553/2
f 553/553/2 593/593/2 554/554/2
f 593/593/2 557/557/2 554/554/2
f 573/573/2 516/516/2 566/566/2
f 517/517/2 516/516/2 573/573/2
f 515/515/2 594/594/2 516/516/2
f 594/594/2 524/524/2 516/516/2
f 595/595/2 524/524/2 594/594/2
f 595/595/2 596/596/2 575/575/2
f 595/595/2 594/594/2 596/596/2
f 596/596/2 597/597/2 575/575/2
f 574/574/2 576/576/2 572/572/2
f 575/575/2 597/597/2 576/576/2
f 565/565/2 598/598/2 599/599/2
f 571/571/2 573/573/2 566/566/2
f 600/600/2 572/572/2 571/571/2
f 574/574/2 572/572/2 600/600/2
f 570/570/2 575/575/2 574/574/2
f 546/546/2 575/575/2 570/570/2
f 601/601/2 546/546/2 569/569/2
f 598/598/2 546/546/2 601/601/2
f 598/598/2 510/510/2 546/546/2
f 602/602/2 567/567/2 568/568/2
f 602/602/2 568/568/2 509/509/2
f 475/475/2 548/548/2 494/494/2
f 475/475/2 603/603/2 487/487/2
f 475/475/2 495/495/2 603/603/2
f 493/493/2 487/487/2 490/490/2
f 493/493/2 475/475/2 487/487/2
f 350/350/2 485/485/2 348/348/2
f 550/550/2 481/481/2 486/486/2
f 549/549/2 486/486/2 604/604/2
f 604/604/2 551/551/2 549/549/2
f 551/551/2 494/494/2 548/548/2
f 605/605/2 556/556/2 589/589/2
f 590/590/2 547/547/2 606/606/2
f 475/475/2 606/606/2 547/547/2
f 475/475/2 607/607/2 606/606/2
f 608/608/2 590/590/2 552/552/2
f 608/608/2 591/591/2 590/590/2
f 590/590/2 592/592/2 552/552/2
f 559/559/2 561/561/2 605/605/2
f 552/552/2 470/470/2 472/472/2
f 589/589/2 559/559/2 605/605/2
f 560/560/2 580/580/2 561/561/2
f 607/607/2 475/475/2 560/560/2
f 566/566/2 609/609/2 564/564/2
f 516/516/2 563/563/2 567/567/2
f 516/516/2 609/609/2 566/566/2
f 516/516/2 567/567/2 609/609/2
f 565/565/2 564/564/2 598/598/2
f 599/599/2 598/598/2 601/601/2
f 610/610/2 510/510/2 598/598/2
f 610/610/2 511/511/2 510/510/2
f 511/511/2 602/602/2 509/509/2
f 211/211/3 475/475/3 168/168/3
f 211/211/3 516/516/3 475/475/3
f 223/223/4 516/516/4 211/211/4
f 223/223/4 529/529/4 516/516/4
f 58/58/5 529/529/5 223/223/5
f 58/58/5 364/364/5 529/529/5
f 109/109/6 364/364/6 58/58/6
f 109/109/6 413/413/6 364/364/6
f 119/119/7 413/413/7 109/109/7
f 119/119/7 424/424/7 413/413/7
f 121/121/8 424/424/8 119/119/8
f 121/121/8 426/426/8 424/424/8
f 124/124/9 426/426/9 121/121/9
f 124/124/9 429/429/9 426/426/9
f 84/84/10 429/429/10 124/124/10
f 84/84/10 389/389/10 429/429/10
f 82/82/8 389/389/8 84/84/8
f 82/82/8 388/388/8 389/389/8
f 16/16/11 388/388/11 82/82/11
f 16/16/11 321/321/11 388/388/11
f 11/11/12 321/321/12 16/16/12
f 11/11/12 314/314/12 321/321/12
f 48/48/8 314/314/8 11/11/8
f 48/48/8 351/351/8 314/314/8
f 50/50/13 351/351/13 48/48/13
f 50/50/13 355/355/13 351/351/13
f 49/49/14 355/355/14 50/50/14
f 49/49/14 356/356/14 355/355/14
f 27/27/15 356/356/15 49/49/15
f 27/27/15 330/330/15 356/356/15
f 30/30/8 330/330/8 27/27/8
f 30/30/8 333/333/8 330/330/8
f 63/63/16 333/333/16 30/30/16
f 63/63/16 368/368/16 333/333/16
f 32/32/17 368/368/17 63/63/17
f 32/32/17 337/337/17 368/368/17
f 34/34/18 337/337/18 32/32/18
f 34/34/18 339/339/18 337/337/18
f 36/36/8 339/339/8 34/34/8
f 36/36/8 340/340/8 339/339/8
f 37/37/19 340/340/19 36/36/19
f 37/37/19 344/344/19 340/340/19
f 60/60/20 344/344/20 37/37/20
f 60/60/20 367/367/20 344/344/20
f 144/144/21 367/367/21 60/60/21
f 144/144/21 448/448/21 367/367/21
f 168/168/22 448/448/22 144/144/22
f 168/168/22 475/475/22 448/448/22
f 52/52/8 359/359/8 53/53/8
f 358/358/8 53/53/8 359/359/8
f 112/112/23 419/419/23 52/52/23
f 359/359/23 52/52/23 419/419/23
f 114/114/24 417/417/24 112/112/24
f 419/419/24 112/112/24 417/417/24
f 142/142/25 447/447/25 114/114/25
f 417/417/25 114/114/25 447/447/25
f 102/102/26 409/409/26 142/142/26
f 447/447/26 142/142/26 409/409/26
f 91/91/27 394/394/27 102/102/27
f 409/409/27 102/102/27 394/394/27
f 90/90/28 395/395/28 91/91/28
f 394/394/28 91/91/28 395/395/28
f 26/26/29 331/331/29 90/90/29
f 395/395/30 90/90/30 331/331/30
f 25/25/31 332/332/31 26/26/31
f 331/331/31 26/26/31 332/332/31
f 51/51/32 354/354/32 25/25/32
f 332/332/32 25/25/32 354/354/32
f 64/64/33 369/369/33 51/51/33
f 354/354/33 51/51/33 369/369/33
f 68/68/34 373/373/34 64/64/34
f 369/369/34 64/64/34 373/373/34
f 67/67/35 371/371/35 68/68/35
f 373/373/35 68/68/35 371/371/35
f 66/66/36 372/372/36 67/67/36
f 371/371/36 67/67/36 372/372/36
f 65/65/6 370/370/6 66/66/6
f 372/372/6 66/66/6 370/370/6
f 56/56/37 361/361/37 65/65/37
f 370/370/37 65/65/37 361/361/37
f 47/47/38 352/352/38 56/56/38
f 361/361/38 56/56/38 352/352/38
f 46/46/39 353/353/39 47/47/39
f 352/352/39 47/47/39 353/353/39
f 69/69/40 374/374/40 46/46/40
f 353/353/40 46/46/40 374/374/40
f 70/70/41 375/375/41 69/69/41
f 374/374/41 69/69/41 375/375/41
f 71/71/42 376/376/42 70/70/42
f 375/375/42 70/70/42 376/376/42
f 72/72/43 377/377/43 71/71/43
f 376/376/43 71/71/43 377/377/43
f 73/73/44 378/378/44 72/72/44
f 377/377/44 72/72/44 378/378/44
f 74/74/45 379/379/45 73/73/45
f 378/378/45 73/73/45 379/379/45
f 75/75/46 380/380/46 74/74/46
f 379/379/46 74/74/46 380/380/46
f 76/76/47 381/381/47 75/75/47
f 380/380/47 75/75/47 381/381/47
f 77/77/48 382/382/48 76/76/48
f 381/381/48 76/76/48 382/382/48
f 78/78/49 383/383/49 77/77/49
f 382/382/49 77/77/49 383/383/49
f 55/55/50 360/360/50 78/78/50
f 383/383/50 78/78/50 360/360/50
f 24/24/51 328/328/51 55/55/51
f 360/360/51 55/55/51 328/328/51
f 23/23/3 329/329/3 24/24/3
f 328/328/3 24/24/3 329/329/3
f 10/10/52 315/315/52 23/23/52
f 329/329/52 23/23/52 315/315/52
f 79/79/53 384/384/53 10/10/53
f 315/315/53 10/10/53 384/384/53
f 81/81/54 385/385/54 79/79/54
f 384/384/54 79/79/54 385/385/54
f 80/80/55 386/386/55 81/81/55
f 385/385/55 81/81/55 386/386/55
f 9/9/56 316/316/56 80/80/56
f 386/386/56 80/80/56 316/316/56
f 15/15/57 322/322/57 9/9/57
f 316/316/57 9/9/57 322/322/57
f 17/17/58 320/320/58 15/15/58
f 322/322/58 15/15/58 320/320/58
f 83/83/59 387/387/59 17/17/59
f 320/320/59 17/17/59 387/387/59
f 127/127/60 432/432/60 83/83/60
f 387/387/60 83/83/60 432/432/60
f 7/7/61 312/312/61 127/127/61
f 432/432/61 127/127/61 312/312/61
f 116/116/62 420/420/62 7/7/62
f 312/312/62 7/7/62 420/420/62
f 126/126/63 431/431/63 116/116/63
f 420/420/63 116/116/63 431/431/63
f 158/158/64 463/463/64 126/126/64
f 431/431/64 126/126/64 463/463/64
f 110/110/65 416/416/65 158/158/65
f 463/463/65 158/158/65 416/416/65
f 53/53/66 358/358/66 110/110/66
f 416/416/66 110/110/66 358/358/66
f 41/41/67 347/347/67 61/61/67
f 366/366/67 61/61/67 347/347/67
f 42/42/68 346/346/68 41/41/68
f 347/347/68 41/41/68 346/346/68
f 95/95/6 400/400/6 42/42/6
f 346/346/6 42/42/6 400/400/6
f 96/96/69 401/401/69 95/95/69
f 400/400/69 95/95/69 401/401/69
f 39/39/70 342/342/70 96/96/70
f 401/401/70 96/96/70 342/342/70
f 38/38/71 343/343/71 39/39/71
f 342/342/71 39/39/71 343/343/71
f 40/40/72 345/345/72 38/38/72
f 343/343/72 38/38/72 345/345/72
f 98/98/73 403/403/73 40/40/73
f 345/345/73 40/40/73 403/403/73
f 35/35/74 341/341/74 98/98/74
f 403/403/74 98/98/74 341/341/74
f 31/31/75 338/338/75 35/35/75
f 341/341/75 35/35/75 338/338/75
f 33/33/76 336/336/76 31/31/76
f 338/338/76 31/31/76 336/336/76
f 29/29/77 334/334/77 33/33/77
f 336/336/77 33/33/77 334/334/77
f 28/28/78 335/335/78 29/29/78
f 334/334/78 29/29/78 335/335/78
f 97/97/79 402/402/79 28/28/79
f 335/335/79 28/28/79 402/402/79
f 89/89/20 396/396/20 97/97/20
f 402/402/20 97/97/20 396/396/20
f 104/104/80 407/407/80 89/89/80
f 396/396/80 89/89/80 407/407/80
f 103/103/81 408/408/81 104/104/81
f 407/407/81 104/104/81 408/408/81
f 146/146/82 450/450/82 103/103/82
f 408/408/82 103/103/82 450/450/82
f 99/99/83 406/406/83 146/146/83
f 450/450/83 146/146/83 406/406/83
f 101/101/84 404/404/84 99/99/84
f 406/406/84 99/99/84 404/404/84
f 107/107/85 410/410/85 101/101/85
f 404/404/85 101/101/85 410/410/85
f 106/106/86 411/411/86 107/107/86
f 410/410/86 107/107/86 411/411/86
f 147/147/87 452/452/87 106/106/87
f 411/411/87 106/106/87 452/452/87
f 154/154/88 459/459/88 147/147/88
f 452/452/88 147/147/88 459/459/88
f 151/151/89 456/456/89 154/154/89
f 459/459/89 154/154/89 456/456/89
f 150/150/90 457/457/90 151/151/90
f 456/456/90 151/151/90 457/457/90
f 61/61/91 366/366/91 150/150/91
f 457/457/91 150/150/91 366/366/91
f 163/163/92 468/468/92 164/164/92
f 469/469/92 164/164/92 468/468/92
f 57/57/6 362/362/6 163/163/6
f 468/468/6 163/163/6 362/362/6
f 22/22/93 326/326/93 57/57/93
f 362/362/93 57/57/93 326/326/93
f 21/21/94 327/327/94 22/22/94
f 326/326/94 22/22/94 327/327/94
f 20/20/95 323/323/95 21/21/95
f 327/327/95 21/21/95 323/323/95
f 88/88/96 393/393/96 20/20/96
f 323/323/96 20/20/96 393/393/96
f 117/117/97 422/422/97 88/88/97
f 393/393/97 88/88/97 422/422/97
f 86/86/98 390/390/98 117/117/98
f 422/422/98 117/117/98 390/390/98
f 87/87/99 392/392/99 86/86/99
f 390/390/99 86/86/99 392/392/99
f 115/115/100 421/421/100 87/87/100
f 392/392/100 87/87/100 421/421/100
f 6/6/101 313/313/101 115/115/101
f 421/421/101 115/115/101 313/313/101
f 8/8/102 311/311/102 6/6/102
f 313/313/102 6/6/102 311/311/102
f 122/122/6 427/427/6 8/8/6
f 311/311/6 8/8/6 427/427/6
f 128/128/103 433/433/103 122/122/103
f 427/427/103 122/122/103 433/433/103
f 123/123/104 430/430/104 128/128/104
f 433/433/104 128/128/104 430/430/104
f 125/125/105 428/428/105 123/123/105
f 430/430/105 123/123/105 428/428/105
f 118/118/106 425/425/106 125/125/106
f 428/428/106 125/125/106 425/425/106
f 120/120/107 423/423/107 118/118/107
f 425/425/107 118/118/107 423/423/107
f 129/129/108 434/434/108 120/120/108
f 423/423/108 120/120/108 434/434/108
f 130/130/109 435/435/109 129/129/109
f 434/434/109 129/129/109 435/435/109
f 131/131/110 436/436/110 130/130/110
f 435/435/110 130/130/110 436/436/110
f 132/132/111 437/437/111 131/131/111
f 436/436/111 131/131/111 437/437/111
f 133/133/112 438/438/112 132/132/112
f 437/437/112 132/132/112 438/438/112
f 134/134/113 439/439/113 133/133/113
f 438/438/113 133/133/113 439/439/113
f 108/108/114 414/414/114 134/134/114
f 439/439/114 134/134/114 414/414/114
f 12/12/115 319/319/115 108/108/115
f 414/414/115 108/108/115 319/319/115
f 164/164/116 469/469/116 12/12/116
f 319/319/116 12/12/116 469/469/116
f 172/172/117 477/477/117 221/221/117
f 526/526/117 221/221/117 477/477/117
f 93/93/118 398/398/118 172/172/118
f 477/477/118 172/172/118 398/398/118
f 92/92/119 399/399/119 93/93/119
f 398/398/119 93/93/119 399/399/119
f 105/105/120 412/412/120 92/92/120
f 399/399/120 92/92/120 412/412/120
f 100/100/121 405/405/121 105/105/121
f 412/412/121 105/105/121 405/405/121
f 145/145/122 451/451/122 100/100/122
f 405/405/122 100/100/122 451/451/122
f 113/113/123 418/418/123 145/145/123
f 451/451/123 145/145/123 418/418/123
f 54/54/124 357/357/124 113/113/124
f 418/418/124 113/113/124 357/357/124
f 111/111/125 415/415/125 54/54/125
f 357/357/125 54/54/125 415/415/125
f 85/85/126 391/391/126 111/111/126
f 415/415/126 111/111/126 391/391/126
f 19/19/127 324/324/127 85/85/127
f 391/391/127 85/85/127 324/324/127
f 18/18/128 325/325/128 19/19/128
f 324/324/128 19/19/128 325/325/128
f 156/156/129 462/462/129 18/18/129
f 325/325/129 18/18/129 462/462/129
f 135/135/130 440/440/130 156/156/130
f 462/462/130 156/156/130 440/440/130
f 5/5/131 309/309/131 135/135/131
f 440/440/131 135/135/131 309/309/131
f 2/2/132 307/307/132 5/5/132
f 309/309/132 5/5/132 307/307/132
f 162/162/133 466/466/133 2/2/133
f 307/307/133 2/2/133 466/466/133
f 161/161/134 467/467/134 162/162/134
f 466/466/134 162/162/134 467/467/134
f 221/221/135 526/526/135 161/161/135
f 467/467/135 161/161/135 526/526/135
f 141/141/8 446/446/8 139/139/8
f 141/141/8 444/444/8 446/446/8
f 155/155/20 444/444/20 141/141/20
f 155/155/20 460/460/20 444/444/20
f 140/140/3 460/460/3 155/155/3
f 140/140/3 445/445/3 460/460/3
f 139/139/6 445/445/6 140/140/6
f 139/139/6 446/446/6 445/445/6
f 273/273/8 579/579/8 169/169/8
f 474/474/8 169/169/8 579/579/8
f 165/165/136 472/472/136 273/273/136
f 579/579/136 273/273/136 472/472/136
f 174/174/137 481/481/137 165/165/137
f 472/472/137 165/165/137 481/481/137
f 45/45/138 348/348/138 174/174/138
f 481/481/138 174/174/138 348/348/138
f 44/44/139 349/349/139 45/45/139
f 348/348/139 45/45/139 349/349/139
f 43/43/140 350/350/140 44/44/140
f 349/349/140 44/44/140 350/350/140
f 185/185/141 490/490/141 43/43/141
f 350/350/141 43/43/141 490/490/141
f 188/188/142 493/493/142 185/185/142
f 490/490/142 185/185/142 493/493/142
f 143/143/143 449/449/143 188/188/143
f 493/493/143 188/188/143 449/449/143
f 191/191/144 496/496/144 143/143/144
f 449/449/144 143/143/144 496/496/144
f 192/192/145 497/497/145 191/191/145
f 496/496/145 191/191/145 497/497/145
f 193/193/146 498/498/146 192/192/146
f 497/497/146 192/192/146 498/498/146
f 194/194/147 499/499/147 193/193/147
f 498/498/147 193/193/147 499/499/147
f 197/197/148 502/502/148 194/194/148
f 499/499/148 194/194/148 502/502/148
f 200/200/149 505/505/149 197/197/149
f 502/502/149 197/197/149 505/505/149
f 199/199/150 506/506/150 200/200/150
f 505/505/150 200/200/150 506/506/150
f 201/201/8 504/504/8 199/199/8
f 506/506/8 199/199/8 504/504/8
f 62/62/151 365/365/151 201/201/151
f 504/504/151 201/201/151 365/365/151
f 202/202/152 507/507/152 62/62/152
f 365/365/152 62/62/152 507/507/152
f 149/149/153 453/453/153 202/202/153
f 507/507/153 202/202/153 453/453/153
f 148/148/154 454/454/154 149/149/154
f 453/453/154 149/149/154 454/454/154
f 152/152/155 455/455/155 148/148/155
f 454/454/155 148/148/155 455/455/155
f 153/153/156 458/458/156 152/152/156
f 455/455/156 152/152/156 458/458/156
f 198/198/157 503/503/157 153/153/157
f 458/458/157 153/153/157 503/503/157
f 196/196/158 500/500/158 198/198/158
f 503/503/158 198/198/158 500/500/158
f 195/195/159 501/501/159 196/196/159
f 500/500/159 196/196/159 501/501/159
f 94/94/160 397/397/160 195/195/160
f 501/501/160 195/195/160 397/397/160
f 171/171/161 478/478/161 94/94/161
f 397/397/161 94/94/161 478/478/161
f 173/173/162 476/476/162 171/171/162
f 478/478/162 171/171/162 476/476/162
f 187/187/163 491/491/163 173/173/163
f 476/476/163 173/173/163 491/491/163
f 138/138/164 441/441/164 187/187/164
f 491/491/164 187/187/164 441/441/164
f 137/137/165 442/442/165 138/138/165
f 441/441/165 138/138/165 442/442/165
f 184/184/166 488/488/166 137/137/166
f 442/442/166 137/137/166 488/488/166
f 217/217/167 523/523/167 184/184/167
f 488/488/167 184/184/167 523/523/167
f 177/177/168 484/484/168 217/217/168
f 523/523/168 217/217/168 484/484/168
f 179/179/169 482/482/169 177/177/169
f 484/484/169 177/177/169 482/482/169
f 216/216/170 521/521/170 179/179/170
f 482/482/170 179/179/170 521/521/170
f 170/170/171 473/473/171 216/216/171
f 521/521/171 216/216/171 473/473/171
f 169/169/172 474/474/172 170/170/172
f 473/473/172 170/170/172 474/474/172
f 219/219/173 524/524/173 290/290/173
f 595/595/173 290/290/173 524/524/173
f 208/208/174 513/513/174 219/219/174
f 524/524/174 219/219/174 513/513/174
f 215/215/175 519/519/175 208/208/175
f 513/513/175 208/208/175 519/519/175
f 214/214/176 520/520/176 215/215/176
f 519/519/176 215/215/176 520/520/176
f 207/207/177 514/514/177 214/214/177
f 520/520/177 214/214/177 514/514/177
f 209/209/178 512/512/178 207/207/178
f 514/514/178 207/207/178 512/512/178
f 213/213/8 518/518/8 209/209/8
f 512/512/8 209/209/8 518/518/8
f 178/178/179 483/483/179 213/213/179
f 518/518/179 213/213/179 483/483/179
f 220/220/180 525/525/180 178/178/180
f 483/483/180 178/178/180 525/525/180
f 218/218/181 522/522/181 220/220/181
f 525/525/181 220/220/181 522/522/181
f 183/183/182 489/489/182 218/218/182
f 522/522/182 218/218/182 489/489/182
f 136/136/6 443/443/6 183/183/6
f 489/489/6 183/183/6 443/443/6
f 186/186/183 492/492/183 136/136/183
f 443/443/183 136/136/183 492/492/183
f 203/203/184 508/508/184 186/186/184
f 492/492/184 186/186/184 508/508/184
f 222/222/185 527/527/185 203/203/185
f 508/508/185 203/203/185 527/527/185
f 1/1/186 308/308/186 222/222/186
f 527/527/186 222/222/186 308/308/186
f 3/3/187 306/306/187 1/1/187
f 308/308/188 1/1/188 306/306/188
f 4/4/189 310/310/189 3/3/189
f 306/306/189 3/3/189 310/310/189
f 157/157/190 461/461/190 4/4/190
f 310/310/190 4/4/190 461/461/190
f 227/227/191 531/531/191 157/157/191
f 461/461/191 157/157/191 531/531/191
f 226/226/192 532/532/192 227/227/192
f 531/531/192 227/227/192 532/532/192
f 228/228/193 533/533/193 226/226/193
f 532/532/193 226/226/193 533/533/193
f 229/229/194 534/534/194 228/228/194
f 533/533/194 228/228/194 534/534/194
f 14/14/195 317/317/195 229/229/195
f 534/534/195 229/229/195 317/317/195
f 13/13/196 318/318/196 14/14/196
f 317/317/196 14/14/196 318/318/196
f 231/231/197 536/536/197 13/13/197
f 318/318/197 13/13/197 536/536/197
f 230/230/198 535/535/198 231/231/198
f 536/536/198 231/231/198 535/535/198
f 59/59/199 363/363/199 230/230/199
f 535/535/199 230/230/199 363/363/199
f 232/232/20 537/537/20 59/59/20
f 363/363/20 59/59/20 537/537/20
f 233/233/200 538/538/200 232/232/200
f 537/537/200 232/232/200 538/538/200
f 234/234/201 539/539/201 233/233/201
f 538/538/201 233/233/201 539/539/201
f 160/160/202 464/464/202 234/234/202
f 539/539/202 234/234/202 464/464/202
f 159/159/203 465/465/203 160/160/203
f 464/464/203 160/160/203 465/465/203
f 224/224/204 528/528/204 159/159/204
f 465/465/204 159/159/204 528/528/204
f 225/225/205 530/530/205 224/224/205
f 528/528/205 224/224/205 530/530/205
f 239/239/206 543/543/206 225/225/206
f 530/530/206 225/225/206 543/543/206
f 238/238/207 544/544/207 239/239/207
f 543/543/207 239/239/207 544/544/207
f 237/237/208 540/540/208 238/238/208
f 544/544/208 238/238/208 540/540/208
f 240/240/209 546/546/209 237/237/209
f 540/540/209 237/237/209 546/546/209
f 270/270/210 575/575/210 240/240/210
f 546/546/210 240/240/210 575/575/210
f 290/290/8 595/595/8 270/270/8
f 575/575/8 270/270/8 595/595/8
f 245/245/211 549/549/211 242/242/211
f 548/548/212 242/242/212 549/549/212
f 244/244/213 550/550/213 245/245/213
f 549/549/213 245/245/213 550/550/213
f 176/176/214 479/479/214 244/244/214
f 550/550/214 244/244/214 479/479/214
f 175/175/215 480/480/215 176/176/215
f 479/479/215 176/176/215 480/480/215
f 247/247/216 552/552/216 175/175/216
f 480/480/216 175/175/216 552/552/216
f 303/303/217 608/608/217 247/247/217
f 552/552/217 247/247/217 608/608/217
f 285/285/218 591/591/218 303/303/218
f 608/608/218 303/303/218 591/591/218
f 243/243/219 547/547/219 285/285/219
f 591/591/219 285/285/219 547/547/219
f 242/242/8 548/548/8 243/243/8
f 547/547/8 243/243/8 548/548/8
f 262/262/220 568/568/220 257/257/220
f 563/563/220 257/257/220 568/568/220
f 206/206/221 509/509/221 262/262/221
f 568/568/221 262/262/221 509/509/221
f 205/205/222 510/510/222 206/206/222
f 509/509/222 206/206/222 510/510/222
f 241/241/223 545/545/223 205/205/223
f 510/510/223 205/205/223 545/545/223
f 272/272/224 577/577/224 241/241/224
f 545/545/224 241/241/224 577/577/224
f 236/236/225 541/541/225 272/272/225
f 577/577/225 272/272/225 541/541/225
f 235/235/226 542/542/226 236/236/226
f 541/541/226 236/236/226 542/542/226
f 258/258/227 562/562/227 235/235/227
f 542/542/228 235/235/228 562/562/228
f 257/257/8 563/563/8 258/258/8
f 562/562/8 258/258/8 563/563/8
f 248/248/229 555/555/229 249/249/229
f 554/554/229 249/249/229 555/555/229
f 274/274/230 578/578/230 248/248/230
f 555/555/230 248/248/230 578/578/230
f 277/277/231 582/582/231 274/274/231
f 578/578/231 274/274/231 582/582/231
f 278/278/232 583/583/232 277/277/232
f 582/582/232 277/277/232 583/583/232
f 279/279/3 584/584/3 278/278/3
f 583/583/3 278/278/3 584/584/3
f 280/280/233 585/585/233 279/279/233
f 584/584/233 279/279/233 585/585/233
f 281/281/234 586/586/234 280/280/234
f 585/585/234 280/280/234 586/586/234
f 282/282/235 587/587/235 281/281/235
f 586/586/235 281/281/235 587/587/235
f 283/283/236 588/588/236 282/282/236
f 587/587/236 282/282/236 588/588/236
f 252/252/237 558/558/237 283/283/237
f 588/588/237 283/283/237 558/558/237
f 249/249/238 554/554/238 252/252/238
f 558/558/238 252/252/238 554/554/238
f 300/300/239 605/605/239 254/254/239
f 561/561/239 254/254/239 605/605/239
f 251/251/6 556/556/6 300/300/6
f 605/605/6 300/300/6 556/556/6
f 166/166/240 471/471/240 251/251/240
f 556/556/240 251/251/240 471/471/240
f 276/276/241 581/581/241 166/166/241
f 471/471/241 166/166/241 581/581/241
f 250/250/242 553/553/242 276/276/242
f 581/581/242 276/276/242 553/553/242
f 288/288/243 593/593/243 250/250/243
f 553/553/243 250/250/243 593/593/243
f 253/253/244 557/557/244 288/288/244
f 593/593/244 288/288/244 557/557/244
f 275/275/245 580/580/245 253/253/245
f 557/557/245 253/253/245 580/580/245
f 254/254/246 561/561/246 275/275/246
f 580/580/246 275/275/246 561/561/246
f 210/210/247 517/517/247 266/266/247
f 573/573/247 266/266/247 517/517/247
f 212/212/248 515/515/248 210/210/248
f 517/517/248 210/210/248 515/515/248
f 289/289/249 594/594/249 212/212/249
f 515/515/249 212/212/249 594/594/249
f 291/291/250 596/596/250 289/289/250
f 594/594/250 289/289/250 596/596/250
f 292/292/3 597/597/3 291/291/3
f 596/596/3 291/291/3 597/597/3
f 269/269/251 576/576/251 292/292/251
f 597/597/251 292/292/251 576/576/251
f 267/267/252 572/572/252 269/269/252
f 576/576/252 269/269/252 572/572/252
f 266/266/253 573/573/253 267/267/253
f 572/572/253 267/267/253 573/573/253
f 295/295/254 600/600/254 268/268/254
f 571/571/254 268/268/254 600/600/254
f 271/271/255 574/574/255 295/295/255
f 600/600/255 295/295/255 574/574/255
f 264/264/3 570/570/3 271/271/3
f 574/574/3 271/271/3 570/570/3
f 265/265/256 569/569/256 264/264/256
f 570/570/256 264/264/256 569/569/256
f 296/296/58 601/601/58 265/265/58
f 569/569/58 265/265/58 601/601/58
f 293/293/20 599/599/20 296/296/20
f 601/601/20 296/296/20 599/599/20
f 260/260/257 565/565/257 293/293/257
f 599/599/257 293/293/257 565/565/257
f 259/259/207 566/566/207 260/260/207
f 565/565/258 260/260/258 566/566/258
f 268/268/259 571/571/259 259/259/259
f 566/566/259 259/259/259 571/571/259
f 182/182/260 487/487/260 298/298/260
f 603/603/260 298/298/260 487/487/260
f 181/181/261 485/485/261 182/182/261
f 487/487/261 182/182/261 485/485/261
f 180/180/262 486/486/262 181/181/262
f 485/485/262 181/181/262 486/486/262
f 299/299/263 604/604/263 180/180/263
f 486/486/263 180/180/263 604/604/263
f 246/246/264 551/551/264 299/299/264
f 604/604/264 299/299/264 551/551/264
f 190/190/265 494/494/265 246/246/265
f 551/551/265 246/246/265 494/494/265
f 189/189/235 495/495/235 190/190/235
f 494/494/235 190/190/235 495/495/235
f 298/298/8 603/603/8 189/189/8
f 495/495/8 189/189/8 603/603/8
f 286/286/260 590/590/260 301/301/260
f 606/606/260 301/301/260 590/590/260
f 287/287/261 592/592/261 286/286/261
f 590/590/261 286/286/261 592/592/261
f 167/167/262 470/470/262 287/287/262
f 592/592/262 287/287/262 470/470/262
f 284/284/195 589/589/195 167/167/195
f 470/470/195 167/167/195 589/589/195
f 256/256/266 559/559/266 284/284/266
f 589/589/266 284/284/266 559/559/266
f 255/255/267 560/560/267 256/256/267
f 559/559/267 256/256/267 560/560/267
f 302/302/268 607/607/268 255/255/268
f 560/560/235 255/255/235 607/607/235
f 301/301/8 606/606/8 302/302/8
f 607/607/8 302/302/8 606/606/8
f 261/261/269 564/564/269 304/304/269
f 609/609/270 304/304/270 564/564/270
f 294/294/271 598/598/271 261/261/271
f 564/564/271 261/261/271 598/598/271
f 305/305/224 610/610/224 294/294/224
f 598/598/224 294/294/224 610/610/224
f 204/204/272 511/511/272 305/305/272
f 610/610/272 305/305/272 511/511/272
f 297/297/273 602/602/273 204/204/273
f 511/511/273 204/204/273 602/602/273
f 263/263/274 567/567/274 297/297/274
f 602/602/274 297/297/274 567/567/274
f 304/304/275 609/609/275 263/263/275
f 567/567/275 263/263/275 609/609/275
